﻿<?xml version="1.0" encoding="UTF-8"?>
<TestRun id="09ecd0de-611b-4ba2-8c06-471ed99c7327" name="Piotrek@SPAREK 2013-05-22 19:19:54" runUser="Sparek\Piotrek" xmlns="http://microsoft.com/schemas/VisualStudio/TeamTest/2010">
  <TestSettings name="Local" id="31046817-227f-4161-9a97-5d34efa999fb">
    <Description>These are default test settings for a local test run.</Description>
    <Deployment enabled="false" runDeploymentRoot="Piotrek_SPAREK 2013-05-22 19_19_54">
      <DeploymentItem filename="D:\Studia\semestr 10\SAB\TeamCityLab1\packages\DbTestHelpers\TDD.DbTestHelpers.dll" />
      <DeploymentItem filename="D:\Studia\semestr 10\SAB\TeamCityLab1\packages\DbTestHelpers\YamlDotNet.Core.dll" />
      <DeploymentItem filename="D:\Studia\semestr 10\SAB\TeamCityLab1\Blog.DAL\bin\Debug\Blog.DAL.dll" />
      <DeploymentItem filename="D:\Studia\semestr 10\SAB\TeamCityLab1\packages\EntityFramework.5.0.0\lib\net40\EntityFramework.dll" />
      <DeploymentItem filename="D:\Studia\semestr 10\SAB\TeamCityLab1\packages\DbTestHelpers\YamlDotNet.RepresentationModel.dll" />
    </Deployment>
    <Execution>
      <TestTypeSpecific />
      <AgentRule name="Execution Agents">
      </AgentRule>
    </Execution>
  </TestSettings>
  <Times creation="2013-05-22T19:19:54.4637737+02:00" queuing="2013-05-22T19:19:54.5657795+02:00" start="2013-05-22T19:19:54.5757801+02:00" finish="2013-05-22T19:19:57.0549219+02:00" />
  <ResultSummary outcome="Failed">
    <Counters total="3" executed="3" error="0" failed="3" timeout="0" aborted="0" inconclusive="0" passedButRunAborted="0" notRunnable="0" notExecuted="0" disconnected="0" warning="0" passed="0" completed="0" inProgress="0" pending="0" />
  </ResultSummary>
  <TestDefinitions>
    <UnitTest name="AddPost_WithoutRequiredData_ThrowsException" storage="d:\studia\semestr 10\sab\teamcitylab1\blog.dal.tests\bin\debug\blog.dal.tests.dll" id="17028b1a-75d6-659c-d883-1bce7980463b">
      <Execution id="d2f37a0c-316b-4335-9e79-8582db0dd625" />
      <TestMethod codeBase="D:/Studia/semestr 10/SAB/TeamCityLab1/Blog.DAL.Tests/bin/Debug/Blog.DAL.Tests.DLL" adapterTypeName="Microsoft.VisualStudio.TestTools.TestTypes.Unit.UnitTestAdapter, Microsoft.VisualStudio.QualityTools.Tips.UnitTest.Adapter, Version=10.0.0.0, Culture=neutral, PublicKeyToken=b03f5f7f11d50a3a" className="Blog.DAL.Tests.RepositoryTests, Blog.DAL.Tests, Version=1.0.0.0, Culture=neutral, PublicKeyToken=null" name="AddPost_WithoutRequiredData_ThrowsException" />
    </UnitTest>
    <UnitTest name="Database_WhenInitializedFromYaml_ContainsOnePost" storage="d:\studia\semestr 10\sab\teamcitylab1\blog.dal.tests\bin\debug\blog.dal.tests.dll" id="a1c08501-3fdc-7782-fe80-5cdd16bec339">
      <Execution id="927be1e7-9fdd-404c-87f2-17b5e9be1404" />
      <TestMethod codeBase="D:/Studia/semestr 10/SAB/TeamCityLab1/Blog.DAL.Tests/bin/Debug/Blog.DAL.Tests.DLL" adapterTypeName="Microsoft.VisualStudio.TestTools.TestTypes.Unit.UnitTestAdapter, Microsoft.VisualStudio.QualityTools.Tips.UnitTest.Adapter, Version=10.0.0.0, Culture=neutral, PublicKeyToken=b03f5f7f11d50a3a" className="Blog.DAL.Tests.RepositoryTests, Blog.DAL.Tests, Version=1.0.0.0, Culture=neutral, PublicKeyToken=null" name="Database_WhenInitializedFromYaml_ContainsOnePost" />
    </UnitTest>
    <UnitTest name="AddPost_OnePostInDb_ReturnCorrectNumberOfPosts" storage="d:\studia\semestr 10\sab\teamcitylab1\blog.dal.tests\bin\debug\blog.dal.tests.dll" id="a35c9170-4315-2bdb-070d-13a3313fa7f3">
      <Execution id="8e2aa81e-0202-4100-ba8b-e9e6b15edf6b" />
      <TestMethod codeBase="D:/Studia/semestr 10/SAB/TeamCityLab1/Blog.DAL.Tests/bin/Debug/Blog.DAL.Tests.DLL" adapterTypeName="Microsoft.VisualStudio.TestTools.TestTypes.Unit.UnitTestAdapter, Microsoft.VisualStudio.QualityTools.Tips.UnitTest.Adapter, Version=10.0.0.0, Culture=neutral, PublicKeyToken=b03f5f7f11d50a3a" className="Blog.DAL.Tests.RepositoryTests, Blog.DAL.Tests, Version=1.0.0.0, Culture=neutral, PublicKeyToken=null" name="AddPost_OnePostInDb_ReturnCorrectNumberOfPosts" />
    </UnitTest>
  </TestDefinitions>
  <TestLists>
    <TestList name="Results Not in a List" id="8c84fa94-04c1-424b-9868-57a2d4851a1d" />
    <TestList name="All Loaded Results" id="19431567-8539-422a-85d7-44ee4e166bda" />
  </TestLists>
  <TestEntries>
    <TestEntry testId="17028b1a-75d6-659c-d883-1bce7980463b" executionId="d2f37a0c-316b-4335-9e79-8582db0dd625" testListId="8c84fa94-04c1-424b-9868-57a2d4851a1d" />
    <TestEntry testId="a1c08501-3fdc-7782-fe80-5cdd16bec339" executionId="927be1e7-9fdd-404c-87f2-17b5e9be1404" testListId="8c84fa94-04c1-424b-9868-57a2d4851a1d" />
    <TestEntry testId="a35c9170-4315-2bdb-070d-13a3313fa7f3" executionId="8e2aa81e-0202-4100-ba8b-e9e6b15edf6b" testListId="8c84fa94-04c1-424b-9868-57a2d4851a1d" />
  </TestEntries>
  <Results>
    <UnitTestResult executionId="d2f37a0c-316b-4335-9e79-8582db0dd625" testId="17028b1a-75d6-659c-d883-1bce7980463b" testName="AddPost_WithoutRequiredData_ThrowsException" computerName="SPAREK" duration="00:00:01.6964279" startTime="2013-05-22T19:19:54.5917810+02:00" endTime="2013-05-22T19:19:56.7849064+02:00" testType="13cdc9d9-ddb5-4fa4-a97d-d965ccfc6d4b" outcome="Failed" testListId="8c84fa94-04c1-424b-9868-57a2d4851a1d" relativeResultsDirectory="d2f37a0c-316b-4335-9e79-8582db0dd625">
      <Output>
        <DebugTrace>Constr
SetUp
Applying fixtures
</DebugTrace>
        <ErrorInfo>
          <Message>Initialization method Blog.DAL.Tests.RepositoryTests.BaseSetUp threw exception. System.Reflection.TargetInvocationException: System.Reflection.TargetInvocationException: Obiekt docelowy wywołania zgłosił wyjątek. ---&gt; System.InvalidOperationException: The model backing the 'BlogContext' context has changed since the database was created. Consider using Code First Migrations to update the database (http://go.microsoft.com/fwlink/?LinkId=238269)..</Message>
          <StackTrace>    w System.Data.Entity.CreateDatabaseIfNotExists`1.InitializeDatabase(TContext context)
   w System.Data.Entity.Internal.InternalContext.&lt;&gt;c__DisplayClass8.&lt;PerformDatabaseInitialization&gt;b__6()
   w System.Data.Entity.Internal.InternalContext.PerformInitializationAction(Action action)
   w System.Data.Entity.Internal.InternalContext.PerformDatabaseInitialization()
   w System.Data.Entity.Internal.LazyInternalContext.&lt;InitializeDatabase&gt;b__4(InternalContext c)
   w System.Data.Entity.Internal.RetryAction`1.PerformAction(TInput input)
   w System.Data.Entity.Internal.LazyInternalContext.InitializeDatabaseAction(Action`1 action)
   w System.Data.Entity.Internal.LazyInternalContext.InitializeDatabase()
   w System.Data.Entity.Internal.InternalContext.GetEntitySetAndBaseTypeForType(Type entityType)
   w System.Data.Entity.Internal.Linq.InternalSet`1.Initialize()
   w System.Data.Entity.Internal.Linq.InternalSet`1.GetEnumerator()
   w System.Data.Entity.Infrastructure.DbQuery`1.System.Collections.Generic.IEnumerable&lt;TResult&gt;.GetEnumerator()
   w TDD.DbTestHelpers.EF.EfExtensions.ClearTable[TEntity](DbSet`1 table) w E:\Studia\_Asystentura\6.sem_letni_2012-2013\SAB\lab\TeamCity\TDD.Blog-master\TDD.DbTestHelpers\EF\EfExtensions.cs:wiersz 13
 --- End of inner exception stack trace ---
    w System.RuntimeMethodHandle.InvokeMethod(Object target, Object[] arguments, Signature sig, Boolean constructor)
   w System.Reflection.RuntimeMethodInfo.UnsafeInvokeInternal(Object obj, Object[] parameters, Object[] arguments)
   w System.Reflection.RuntimeMethodInfo.Invoke(Object obj, BindingFlags invokeAttr, Binder binder, Object[] parameters, CultureInfo culture)
   w System.Reflection.MethodBase.Invoke(Object obj, Object[] parameters)
   w TDD.DbTestHelpers.Helpers.FileHelper.ClearTables(Type fixtureType, DbContext context) w E:\Studia\_Asystentura\6.sem_letni_2012-2013\SAB\lab\TeamCity\TDD.Blog-master\TDD.DbTestHelpers\Helpers\FileHelper.cs:wiersz 30
   w TDD.DbTestHelpers.Helpers.FileHelper.ClearTables[TFixtureType](DbContext context) w E:\Studia\_Asystentura\6.sem_letni_2012-2013\SAB\lab\TeamCity\TDD.Blog-master\TDD.DbTestHelpers\Helpers\FileHelper.cs:wiersz 19
   w TDD.DbTestHelpers.Yaml.YamlDbFixture`2.PrepareDatabase() w E:\Studia\_Asystentura\6.sem_letni_2012-2013\SAB\lab\TeamCity\TDD.Blog-master\TDD.DbTestHelpers\Yaml\YamlDbFixture.cs:wiersz 33
   w TDD.DbTestHelpers.Core.DbBaseTest`1.ApplyFixtures() w E:\Studia\_Asystentura\6.sem_letni_2012-2013\SAB\lab\TeamCity\TDD.Blog-master\TDD.DbTestHelpers\Core\DbBaseTest.cs:wiersz 44
   w TDD.DbTestHelpers.Core.DbBaseTest`1.BaseSetUp() w E:\Studia\_Asystentura\6.sem_letni_2012-2013\SAB\lab\TeamCity\TDD.Blog-master\TDD.DbTestHelpers\Core\DbBaseTest.cs:wiersz 23
</StackTrace>
        </ErrorInfo>
      </Output>
    </UnitTestResult>
    <UnitTestResult executionId="927be1e7-9fdd-404c-87f2-17b5e9be1404" testId="a1c08501-3fdc-7782-fe80-5cdd16bec339" testName="Database_WhenInitializedFromYaml_ContainsOnePost" computerName="SPAREK" duration="00:00:00.0912843" startTime="2013-05-22T19:19:56.7939069+02:00" endTime="2013-05-22T19:19:56.8899124+02:00" testType="13cdc9d9-ddb5-4fa4-a97d-d965ccfc6d4b" outcome="Failed" testListId="8c84fa94-04c1-424b-9868-57a2d4851a1d" relativeResultsDirectory="927be1e7-9fdd-404c-87f2-17b5e9be1404">
      <Output>
        <DebugTrace>Constr
SetUp
Applying fixtures
</DebugTrace>
        <ErrorInfo>
          <Message>Initialization method Blog.DAL.Tests.RepositoryTests.BaseSetUp threw exception. System.Reflection.TargetInvocationException: System.Reflection.TargetInvocationException: Obiekt docelowy wywołania zgłosił wyjątek. ---&gt; System.InvalidOperationException: The model backing the 'BlogContext' context has changed since the database was created. Consider using Code First Migrations to update the database (http://go.microsoft.com/fwlink/?LinkId=238269)..</Message>
          <StackTrace>    w System.Data.Entity.CreateDatabaseIfNotExists`1.InitializeDatabase(TContext context)
   w System.Data.Entity.Internal.InternalContext.&lt;&gt;c__DisplayClass8.&lt;PerformDatabaseInitialization&gt;b__6()
   w System.Data.Entity.Internal.InternalContext.PerformInitializationAction(Action action)
   w System.Data.Entity.Internal.InternalContext.PerformDatabaseInitialization()
   w System.Data.Entity.Internal.LazyInternalContext.&lt;InitializeDatabase&gt;b__4(InternalContext c)
   w System.Data.Entity.Internal.RetryAction`1.PerformAction(TInput input)
   w System.Data.Entity.Internal.LazyInternalContext.InitializeDatabaseAction(Action`1 action)
   w System.Data.Entity.Internal.LazyInternalContext.InitializeDatabase()
   w System.Data.Entity.Internal.InternalContext.GetEntitySetAndBaseTypeForType(Type entityType)
   w System.Data.Entity.Internal.Linq.InternalSet`1.Initialize()
   w System.Data.Entity.Internal.Linq.InternalSet`1.GetEnumerator()
   w System.Data.Entity.Infrastructure.DbQuery`1.System.Collections.Generic.IEnumerable&lt;TResult&gt;.GetEnumerator()
   w TDD.DbTestHelpers.EF.EfExtensions.ClearTable[TEntity](DbSet`1 table) w E:\Studia\_Asystentura\6.sem_letni_2012-2013\SAB\lab\TeamCity\TDD.Blog-master\TDD.DbTestHelpers\EF\EfExtensions.cs:wiersz 13
 --- End of inner exception stack trace ---
    w System.RuntimeMethodHandle.InvokeMethod(Object target, Object[] arguments, Signature sig, Boolean constructor)
   w System.Reflection.RuntimeMethodInfo.UnsafeInvokeInternal(Object obj, Object[] parameters, Object[] arguments)
   w System.Reflection.RuntimeMethodInfo.Invoke(Object obj, BindingFlags invokeAttr, Binder binder, Object[] parameters, CultureInfo culture)
   w System.Reflection.MethodBase.Invoke(Object obj, Object[] parameters)
   w TDD.DbTestHelpers.Helpers.FileHelper.ClearTables(Type fixtureType, DbContext context) w E:\Studia\_Asystentura\6.sem_letni_2012-2013\SAB\lab\TeamCity\TDD.Blog-master\TDD.DbTestHelpers\Helpers\FileHelper.cs:wiersz 30
   w TDD.DbTestHelpers.Helpers.FileHelper.ClearTables[TFixtureType](DbContext context) w E:\Studia\_Asystentura\6.sem_letni_2012-2013\SAB\lab\TeamCity\TDD.Blog-master\TDD.DbTestHelpers\Helpers\FileHelper.cs:wiersz 19
   w TDD.DbTestHelpers.Yaml.YamlDbFixture`2.PrepareDatabase() w E:\Studia\_Asystentura\6.sem_letni_2012-2013\SAB\lab\TeamCity\TDD.Blog-master\TDD.DbTestHelpers\Yaml\YamlDbFixture.cs:wiersz 33
   w TDD.DbTestHelpers.Core.DbBaseTest`1.ApplyFixtures() w E:\Studia\_Asystentura\6.sem_letni_2012-2013\SAB\lab\TeamCity\TDD.Blog-master\TDD.DbTestHelpers\Core\DbBaseTest.cs:wiersz 44
   w TDD.DbTestHelpers.Core.DbBaseTest`1.BaseSetUp() w E:\Studia\_Asystentura\6.sem_letni_2012-2013\SAB\lab\TeamCity\TDD.Blog-master\TDD.DbTestHelpers\Core\DbBaseTest.cs:wiersz 23
</StackTrace>
        </ErrorInfo>
      </Output>
    </UnitTestResult>
    <UnitTestResult executionId="8e2aa81e-0202-4100-ba8b-e9e6b15edf6b" testId="a35c9170-4315-2bdb-070d-13a3313fa7f3" testName="AddPost_OnePostInDb_ReturnCorrectNumberOfPosts" computerName="SPAREK" duration="00:00:00.1261929" startTime="2013-05-22T19:19:56.8919125+02:00" endTime="2013-05-22T19:19:57.0219200+02:00" testType="13cdc9d9-ddb5-4fa4-a97d-d965ccfc6d4b" outcome="Failed" testListId="8c84fa94-04c1-424b-9868-57a2d4851a1d" relativeResultsDirectory="8e2aa81e-0202-4100-ba8b-e9e6b15edf6b">
      <Output>
        <DebugTrace>Constr
SetUp
Applying fixtures
</DebugTrace>
        <ErrorInfo>
          <Message>Initialization method Blog.DAL.Tests.RepositoryTests.BaseSetUp threw exception. System.Reflection.TargetInvocationException: System.Reflection.TargetInvocationException: Obiekt docelowy wywołania zgłosił wyjątek. ---&gt; System.InvalidOperationException: The model backing the 'BlogContext' context has changed since the database was created. Consider using Code First Migrations to update the database (http://go.microsoft.com/fwlink/?LinkId=238269)..</Message>
          <StackTrace>    w System.Data.Entity.CreateDatabaseIfNotExists`1.InitializeDatabase(TContext context)
   w System.Data.Entity.Internal.InternalContext.&lt;&gt;c__DisplayClass8.&lt;PerformDatabaseInitialization&gt;b__6()
   w System.Data.Entity.Internal.InternalContext.PerformInitializationAction(Action action)
   w System.Data.Entity.Internal.InternalContext.PerformDatabaseInitialization()
   w System.Data.Entity.Internal.LazyInternalContext.&lt;InitializeDatabase&gt;b__4(InternalContext c)
   w System.Data.Entity.Internal.RetryAction`1.PerformAction(TInput input)
   w System.Data.Entity.Internal.LazyInternalContext.InitializeDatabaseAction(Action`1 action)
   w System.Data.Entity.Internal.LazyInternalContext.InitializeDatabase()
   w System.Data.Entity.Internal.InternalContext.GetEntitySetAndBaseTypeForType(Type entityType)
   w System.Data.Entity.Internal.Linq.InternalSet`1.Initialize()
   w System.Data.Entity.Internal.Linq.InternalSet`1.GetEnumerator()
   w System.Data.Entity.Infrastructure.DbQuery`1.System.Collections.Generic.IEnumerable&lt;TResult&gt;.GetEnumerator()
   w TDD.DbTestHelpers.EF.EfExtensions.ClearTable[TEntity](DbSet`1 table) w E:\Studia\_Asystentura\6.sem_letni_2012-2013\SAB\lab\TeamCity\TDD.Blog-master\TDD.DbTestHelpers\EF\EfExtensions.cs:wiersz 13
 --- End of inner exception stack trace ---
    w System.RuntimeMethodHandle.InvokeMethod(Object target, Object[] arguments, Signature sig, Boolean constructor)
   w System.Reflection.RuntimeMethodInfo.UnsafeInvokeInternal(Object obj, Object[] parameters, Object[] arguments)
   w System.Reflection.RuntimeMethodInfo.Invoke(Object obj, BindingFlags invokeAttr, Binder binder, Object[] parameters, CultureInfo culture)
   w System.Reflection.MethodBase.Invoke(Object obj, Object[] parameters)
   w TDD.DbTestHelpers.Helpers.FileHelper.ClearTables(Type fixtureType, DbContext context) w E:\Studia\_Asystentura\6.sem_letni_2012-2013\SAB\lab\TeamCity\TDD.Blog-master\TDD.DbTestHelpers\Helpers\FileHelper.cs:wiersz 30
   w TDD.DbTestHelpers.Helpers.FileHelper.ClearTables[TFixtureType](DbContext context) w E:\Studia\_Asystentura\6.sem_letni_2012-2013\SAB\lab\TeamCity\TDD.Blog-master\TDD.DbTestHelpers\Helpers\FileHelper.cs:wiersz 19
   w TDD.DbTestHelpers.Yaml.YamlDbFixture`2.PrepareDatabase() w E:\Studia\_Asystentura\6.sem_letni_2012-2013\SAB\lab\TeamCity\TDD.Blog-master\TDD.DbTestHelpers\Yaml\YamlDbFixture.cs:wiersz 33
   w TDD.DbTestHelpers.Core.DbBaseTest`1.ApplyFixtures() w E:\Studia\_Asystentura\6.sem_letni_2012-2013\SAB\lab\TeamCity\TDD.Blog-master\TDD.DbTestHelpers\Core\DbBaseTest.cs:wiersz 44
   w TDD.DbTestHelpers.Core.DbBaseTest`1.BaseSetUp() w E:\Studia\_Asystentura\6.sem_letni_2012-2013\SAB\lab\TeamCity\TDD.Blog-master\TDD.DbTestHelpers\Core\DbBaseTest.cs:wiersz 23
</StackTrace>
        </ErrorInfo>
      </Output>
    </UnitTestResult>
  </Results>
</TestRun>