﻿<?xml version="1.0" encoding="UTF-8"?>
<TestRun id="9f976a28-5651-4785-9c66-8d3e7b89464f" name="Piotrek@SPAREK 2013-05-22 18:45:35" runUser="Sparek\Piotrek" xmlns="http://microsoft.com/schemas/VisualStudio/TeamTest/2010">
  <TestSettings name="Local" id="31046817-227f-4161-9a97-5d34efa999fb">
    <Description>These are default test settings for a local test run.</Description>
    <Deployment enabled="false" runDeploymentRoot="Piotrek_SPAREK 2013-05-22 18_45_35">
      <DeploymentItem filename="D:\Studia\semestr 10\SAB\TeamCityLab1\packages\DbTestHelpers\TDD.DbTestHelpers.dll" />
      <DeploymentItem filename="D:\Studia\semestr 10\SAB\TeamCityLab1\packages\DbTestHelpers\YamlDotNet.Core.dll" />
      <DeploymentItem filename="D:\Studia\semestr 10\SAB\TeamCityLab1\Blog.DAL\bin\Debug\Blog.DAL.dll" />
      <DeploymentItem filename="D:\Studia\semestr 10\SAB\TeamCityLab1\packages\EntityFramework.5.0.0\lib\net40\EntityFramework.dll" />
      <DeploymentItem filename="D:\Studia\semestr 10\SAB\TeamCityLab1\packages\DbTestHelpers\YamlDotNet.RepresentationModel.dll" />
    </Deployment>
    <Execution>
      <TestTypeSpecific />
      <AgentRule name="Execution Agents">
      </AgentRule>
    </Execution>
  </TestSettings>
  <Times creation="2013-05-22T18:45:35.9600340+02:00" queuing="2013-05-22T18:45:36.0500391+02:00" start="2013-05-22T18:45:36.0640399+02:00" finish="2013-05-22T18:45:38.0081511+02:00" />
  <ResultSummary outcome="Completed">
    <Counters total="1" executed="1" passed="1" error="0" failed="0" timeout="0" aborted="0" inconclusive="0" passedButRunAborted="0" notRunnable="0" notExecuted="0" disconnected="0" warning="0" completed="0" inProgress="0" pending="0" />
  </ResultSummary>
  <TestDefinitions>
    <UnitTest name="Database_WhenInitializedFromYaml_ContainsOnePost" storage="d:\studia\semestr 10\sab\teamcitylab1\blog.dal.tests\bin\debug\blog.dal.tests.dll" id="a1c08501-3fdc-7782-fe80-5cdd16bec339">
      <Execution id="fc84a694-ab98-4567-ad85-a6bef7a9c6d0" />
      <TestMethod codeBase="D:/Studia/semestr 10/SAB/TeamCityLab1/Blog.DAL.Tests/bin/Debug/Blog.DAL.Tests.DLL" adapterTypeName="Microsoft.VisualStudio.TestTools.TestTypes.Unit.UnitTestAdapter, Microsoft.VisualStudio.QualityTools.Tips.UnitTest.Adapter, Version=10.0.0.0, Culture=neutral, PublicKeyToken=b03f5f7f11d50a3a" className="Blog.DAL.Tests.RepositoryTests, Blog.DAL.Tests, Version=1.0.0.0, Culture=neutral, PublicKeyToken=null" name="Database_WhenInitializedFromYaml_ContainsOnePost" />
    </UnitTest>
  </TestDefinitions>
  <TestLists>
    <TestList name="Results Not in a List" id="8c84fa94-04c1-424b-9868-57a2d4851a1d" />
    <TestList name="All Loaded Results" id="19431567-8539-422a-85d7-44ee4e166bda" />
  </TestLists>
  <TestEntries>
    <TestEntry testId="a1c08501-3fdc-7782-fe80-5cdd16bec339" executionId="fc84a694-ab98-4567-ad85-a6bef7a9c6d0" testListId="8c84fa94-04c1-424b-9868-57a2d4851a1d" />
  </TestEntries>
  <Results>
    <UnitTestResult executionId="fc84a694-ab98-4567-ad85-a6bef7a9c6d0" testId="a1c08501-3fdc-7782-fe80-5cdd16bec339" testName="Database_WhenInitializedFromYaml_ContainsOnePost" computerName="SPAREK" duration="00:00:01.3193066" startTime="2013-05-22T18:45:36.0820410+02:00" endTime="2013-05-22T18:45:37.8641429+02:00" testType="13cdc9d9-ddb5-4fa4-a97d-d965ccfc6d4b" outcome="Passed" testListId="8c84fa94-04c1-424b-9868-57a2d4851a1d" relativeResultsDirectory="fc84a694-ab98-4567-ad85-a6bef7a9c6d0">
      <Output>
        <DebugTrace>Constr
SetUp
Applying fixtures
D:\Studia\semestr 10\SAB\TeamCityLab1\Blog.DAL.Tests\bin\Debug\Fixtures\posts.yml
FixtureSetUp
</DebugTrace>
      </Output>
    </UnitTestResult>
  </Results>
</TestRun>