﻿<?xml version="1.0" encoding="UTF-8"?>
<TestRun id="1064a1f5-2213-490f-8217-bba7571cd37d" name="Piotrek@SPAREK 2013-05-22 19:12:31" runUser="Sparek\Piotrek" xmlns="http://microsoft.com/schemas/VisualStudio/TeamTest/2010">
  <TestSettings name="Local" id="31046817-227f-4161-9a97-5d34efa999fb">
    <Description>These are default test settings for a local test run.</Description>
    <Deployment enabled="false" runDeploymentRoot="Piotrek_SPAREK 2013-05-22 19_12_31">
      <DeploymentItem filename="D:\Studia\semestr 10\SAB\TeamCityLab1\packages\DbTestHelpers\TDD.DbTestHelpers.dll" />
      <DeploymentItem filename="D:\Studia\semestr 10\SAB\TeamCityLab1\packages\DbTestHelpers\YamlDotNet.Core.dll" />
      <DeploymentItem filename="D:\Studia\semestr 10\SAB\TeamCityLab1\Blog.DAL\bin\Debug\Blog.DAL.dll" />
      <DeploymentItem filename="D:\Studia\semestr 10\SAB\TeamCityLab1\packages\EntityFramework.5.0.0\lib\net40\EntityFramework.dll" />
      <DeploymentItem filename="D:\Studia\semestr 10\SAB\TeamCityLab1\packages\DbTestHelpers\YamlDotNet.RepresentationModel.dll" />
    </Deployment>
    <Execution>
      <TestTypeSpecific />
      <AgentRule name="Execution Agents">
      </AgentRule>
    </Execution>
  </TestSettings>
  <Times creation="2013-05-22T19:12:31.2514234+02:00" queuing="2013-05-22T19:12:31.3584295+02:00" start="2013-05-22T19:12:31.3654299+02:00" finish="2013-05-22T19:12:38.7518524+02:00" />
  <ResultSummary outcome="Failed">
    <Counters total="3" executed="3" error="0" failed="3" timeout="0" aborted="0" inconclusive="0" passedButRunAborted="0" notRunnable="0" notExecuted="0" disconnected="0" warning="0" passed="0" completed="0" inProgress="0" pending="0" />
  </ResultSummary>
  <TestDefinitions>
    <UnitTest name="AddPost_WithoutRequiredData_ThrowsException" storage="d:\studia\semestr 10\sab\teamcitylab1\blog.dal.tests\bin\debug\blog.dal.tests.dll" id="17028b1a-75d6-659c-d883-1bce7980463b">
      <Execution id="53bd3072-394b-4889-8af2-5e834c6cf5c2" />
      <TestMethod codeBase="D:/Studia/semestr 10/SAB/TeamCityLab1/Blog.DAL.Tests/bin/Debug/Blog.DAL.Tests.DLL" adapterTypeName="Microsoft.VisualStudio.TestTools.TestTypes.Unit.UnitTestAdapter, Microsoft.VisualStudio.QualityTools.Tips.UnitTest.Adapter, Version=10.0.0.0, Culture=neutral, PublicKeyToken=b03f5f7f11d50a3a" className="Blog.DAL.Tests.RepositoryTests, Blog.DAL.Tests, Version=1.0.0.0, Culture=neutral, PublicKeyToken=null" name="AddPost_WithoutRequiredData_ThrowsException" />
    </UnitTest>
    <UnitTest name="Database_WhenInitializedFromYaml_ContainsOnePost" storage="d:\studia\semestr 10\sab\teamcitylab1\blog.dal.tests\bin\debug\blog.dal.tests.dll" id="a1c08501-3fdc-7782-fe80-5cdd16bec339">
      <Execution id="e57fe991-3eee-4f21-a778-96a6d925a730" />
      <TestMethod codeBase="D:/Studia/semestr 10/SAB/TeamCityLab1/Blog.DAL.Tests/bin/Debug/Blog.DAL.Tests.DLL" adapterTypeName="Microsoft.VisualStudio.TestTools.TestTypes.Unit.UnitTestAdapter, Microsoft.VisualStudio.QualityTools.Tips.UnitTest.Adapter, Version=10.0.0.0, Culture=neutral, PublicKeyToken=b03f5f7f11d50a3a" className="Blog.DAL.Tests.RepositoryTests, Blog.DAL.Tests, Version=1.0.0.0, Culture=neutral, PublicKeyToken=null" name="Database_WhenInitializedFromYaml_ContainsOnePost" />
    </UnitTest>
    <UnitTest name="AddPost_OnePostInDb_ReturnCorrectNumberOfPosts" storage="d:\studia\semestr 10\sab\teamcitylab1\blog.dal.tests\bin\debug\blog.dal.tests.dll" id="a35c9170-4315-2bdb-070d-13a3313fa7f3">
      <Execution id="70a0cb92-d65d-447b-8697-f345e2a90c6f" />
      <TestMethod codeBase="D:/Studia/semestr 10/SAB/TeamCityLab1/Blog.DAL.Tests/bin/Debug/Blog.DAL.Tests.DLL" adapterTypeName="Microsoft.VisualStudio.TestTools.TestTypes.Unit.UnitTestAdapter, Microsoft.VisualStudio.QualityTools.Tips.UnitTest.Adapter, Version=10.0.0.0, Culture=neutral, PublicKeyToken=b03f5f7f11d50a3a" className="Blog.DAL.Tests.RepositoryTests, Blog.DAL.Tests, Version=1.0.0.0, Culture=neutral, PublicKeyToken=null" name="AddPost_OnePostInDb_ReturnCorrectNumberOfPosts" />
    </UnitTest>
  </TestDefinitions>
  <TestLists>
    <TestList name="Results Not in a List" id="8c84fa94-04c1-424b-9868-57a2d4851a1d" />
    <TestList name="All Loaded Results" id="19431567-8539-422a-85d7-44ee4e166bda" />
  </TestLists>
  <TestEntries>
    <TestEntry testId="17028b1a-75d6-659c-d883-1bce7980463b" executionId="53bd3072-394b-4889-8af2-5e834c6cf5c2" testListId="8c84fa94-04c1-424b-9868-57a2d4851a1d" />
    <TestEntry testId="a1c08501-3fdc-7782-fe80-5cdd16bec339" executionId="e57fe991-3eee-4f21-a778-96a6d925a730" testListId="8c84fa94-04c1-424b-9868-57a2d4851a1d" />
    <TestEntry testId="a35c9170-4315-2bdb-070d-13a3313fa7f3" executionId="70a0cb92-d65d-447b-8697-f345e2a90c6f" testListId="8c84fa94-04c1-424b-9868-57a2d4851a1d" />
  </TestEntries>
  <Results>
    <UnitTestResult executionId="53bd3072-394b-4889-8af2-5e834c6cf5c2" testId="17028b1a-75d6-659c-d883-1bce7980463b" testName="AddPost_WithoutRequiredData_ThrowsException" computerName="SPAREK" duration="00:00:04.2526117" startTime="2013-05-22T19:12:31.3874311+02:00" endTime="2013-05-22T19:12:36.0046952+02:00" testType="13cdc9d9-ddb5-4fa4-a97d-d965ccfc6d4b" outcome="Failed" testListId="8c84fa94-04c1-424b-9868-57a2d4851a1d" relativeResultsDirectory="53bd3072-394b-4889-8af2-5e834c6cf5c2">
      <Output>
        <DebugTrace>Constr
SetUp
Applying fixtures
</DebugTrace>
        <ErrorInfo>
          <Message>Initialization method Blog.DAL.Tests.RepositoryTests.BaseSetUp threw exception. System.Reflection.TargetInvocationException: System.Reflection.TargetInvocationException: Obiekt docelowy wywołania zgłosił wyjątek. ---&gt; System.Data.SqlClient.SqlException: Cannot open user default database. Login failed.
Login failed for user 'Sparek\Piotrek'..</Message>
          <StackTrace>    w System.Data.SqlClient.SqlInternalConnection.OnError(SqlException exception, Boolean breakConnection, Action`1 wrapCloseInAction)
   w System.Data.SqlClient.TdsParser.ThrowExceptionAndWarning(TdsParserStateObject stateObj, Boolean callerHasConnectionLock, Boolean asyncClose)
   w System.Data.SqlClient.TdsParser.TryRun(RunBehavior runBehavior, SqlCommand cmdHandler, SqlDataReader dataStream, BulkCopySimpleResultSet bulkCopyHandler, TdsParserStateObject stateObj, Boolean&amp; dataReady)
   w System.Data.SqlClient.TdsParser.Run(RunBehavior runBehavior, SqlCommand cmdHandler, SqlDataReader dataStream, BulkCopySimpleResultSet bulkCopyHandler, TdsParserStateObject stateObj)
   w System.Data.SqlClient.SqlInternalConnectionTds.CompleteLogin(Boolean enlistOK)
   w System.Data.SqlClient.SqlInternalConnectionTds.AttemptOneLogin(ServerInfo serverInfo, String newPassword, SecureString newSecurePassword, Boolean ignoreSniOpenTimeout, TimeoutTimer timeout, Boolean withFailover)
   w System.Data.SqlClient.SqlInternalConnectionTds.LoginNoFailover(ServerInfo serverInfo, String newPassword, SecureString newSecurePassword, Boolean redirectedUserInstance, SqlConnectionString connectionOptions, SqlCredential credential, TimeoutTimer timeout)
   w System.Data.SqlClient.SqlInternalConnectionTds.OpenLoginEnlist(TimeoutTimer timeout, SqlConnectionString connectionOptions, SqlCredential credential, String newPassword, SecureString newSecurePassword, Boolean redirectedUserInstance)
   w System.Data.SqlClient.SqlInternalConnectionTds..ctor(DbConnectionPoolIdentity identity, SqlConnectionString connectionOptions, SqlCredential credential, Object providerInfo, String newPassword, SecureString newSecurePassword, Boolean redirectedUserInstance, SqlConnectionString userConnectionOptions)
   w System.Data.SqlClient.SqlConnectionFactory.CreateConnection(DbConnectionOptions options, DbConnectionPoolKey poolKey, Object poolGroupProviderInfo, DbConnectionPool pool, DbConnection owningConnection, DbConnectionOptions userOptions)
   w System.Data.ProviderBase.DbConnectionFactory.CreatePooledConnection(DbConnectionPool pool, DbConnectionOptions options, DbConnectionPoolKey poolKey, DbConnectionOptions userOptions)
   w System.Data.ProviderBase.DbConnectionPool.CreateObject(DbConnectionOptions userOptions)
   w System.Data.ProviderBase.DbConnectionPool.UserCreateRequest(DbConnectionOptions userOptions)
   w System.Data.ProviderBase.DbConnectionPool.TryGetConnection(DbConnection owningObject, UInt32 waitForMultipleObjectsTimeout, Boolean allowCreate, Boolean onlyOneCheckConnection, DbConnectionOptions userOptions, DbConnectionInternal&amp; connection)
   w System.Data.ProviderBase.DbConnectionPool.TryGetConnection(DbConnection owningObject, TaskCompletionSource`1 retry, DbConnectionOptions userOptions, DbConnectionInternal&amp; connection)
   w System.Data.ProviderBase.DbConnectionFactory.TryGetConnection(DbConnection owningConnection, TaskCompletionSource`1 retry, DbConnectionOptions userOptions, DbConnectionInternal&amp; connection)
   w System.Data.ProviderBase.DbConnectionClosed.TryOpenConnection(DbConnection outerConnection, DbConnectionFactory connectionFactory, TaskCompletionSource`1 retry, DbConnectionOptions userOptions)
   w System.Data.SqlClient.SqlConnection.TryOpen(TaskCompletionSource`1 retry)
   w System.Data.SqlClient.SqlConnection.Open()
   w System.Data.SqlClient.SqlProviderServices.UsingConnection(SqlConnection sqlConnection, Action`1 act)
   w System.Data.SqlClient.SqlProviderServices.DbCreateDatabase(DbConnection connection, Nullable`1 commandTimeout, StoreItemCollection storeItemCollection)
   w System.Data.Objects.ObjectContext.CreateDatabase()
   w System.Data.Entity.Migrations.Utilities.DatabaseCreator.Create(DbConnection connection)
   w System.Data.Entity.Migrations.DbMigrator.EnsureDatabaseExists()
   w System.Data.Entity.Migrations.DbMigrator.Update(String targetMigration)
   w System.Data.Entity.Internal.DatabaseCreator.CreateDatabase(InternalContext internalContext, Func`3 createMigrator, ObjectContext objectContext)
   w System.Data.Entity.Internal.InternalContext.CreateDatabase(ObjectContext objectContext)
   w System.Data.Entity.Database.Create(Boolean skipExistsCheck)
   w System.Data.Entity.CreateDatabaseIfNotExists`1.InitializeDatabase(TContext context)
   w System.Data.Entity.Internal.InternalContext.&lt;&gt;c__DisplayClass8.&lt;PerformDatabaseInitialization&gt;b__6()
   w System.Data.Entity.Internal.InternalContext.PerformInitializationAction(Action action)
   w System.Data.Entity.Internal.InternalContext.PerformDatabaseInitialization()
   w System.Data.Entity.Internal.LazyInternalContext.&lt;InitializeDatabase&gt;b__4(InternalContext c)
   w System.Data.Entity.Internal.RetryAction`1.PerformAction(TInput input)
   w System.Data.Entity.Internal.LazyInternalContext.InitializeDatabaseAction(Action`1 action)
   w System.Data.Entity.Internal.LazyInternalContext.InitializeDatabase()
   w System.Data.Entity.Internal.InternalContext.GetEntitySetAndBaseTypeForType(Type entityType)
   w System.Data.Entity.Internal.Linq.InternalSet`1.Initialize()
   w System.Data.Entity.Internal.Linq.InternalSet`1.GetEnumerator()
   w System.Data.Entity.Infrastructure.DbQuery`1.System.Collections.Generic.IEnumerable&lt;TResult&gt;.GetEnumerator()
   w TDD.DbTestHelpers.EF.EfExtensions.ClearTable[TEntity](DbSet`1 table) w E:\Studia\_Asystentura\6.sem_letni_2012-2013\SAB\lab\TeamCity\TDD.Blog-master\TDD.DbTestHelpers\EF\EfExtensions.cs:wiersz 13
 --- End of inner exception stack trace ---
    w System.RuntimeMethodHandle.InvokeMethod(Object target, Object[] arguments, Signature sig, Boolean constructor)
   w System.Reflection.RuntimeMethodInfo.UnsafeInvokeInternal(Object obj, Object[] parameters, Object[] arguments)
   w System.Reflection.RuntimeMethodInfo.Invoke(Object obj, BindingFlags invokeAttr, Binder binder, Object[] parameters, CultureInfo culture)
   w System.Reflection.MethodBase.Invoke(Object obj, Object[] parameters)
   w TDD.DbTestHelpers.Helpers.FileHelper.ClearTables(Type fixtureType, DbContext context) w E:\Studia\_Asystentura\6.sem_letni_2012-2013\SAB\lab\TeamCity\TDD.Blog-master\TDD.DbTestHelpers\Helpers\FileHelper.cs:wiersz 30
   w TDD.DbTestHelpers.Helpers.FileHelper.ClearTables[TFixtureType](DbContext context) w E:\Studia\_Asystentura\6.sem_letni_2012-2013\SAB\lab\TeamCity\TDD.Blog-master\TDD.DbTestHelpers\Helpers\FileHelper.cs:wiersz 19
   w TDD.DbTestHelpers.Yaml.YamlDbFixture`2.PrepareDatabase() w E:\Studia\_Asystentura\6.sem_letni_2012-2013\SAB\lab\TeamCity\TDD.Blog-master\TDD.DbTestHelpers\Yaml\YamlDbFixture.cs:wiersz 33
   w TDD.DbTestHelpers.Core.DbBaseTest`1.ApplyFixtures() w E:\Studia\_Asystentura\6.sem_letni_2012-2013\SAB\lab\TeamCity\TDD.Blog-master\TDD.DbTestHelpers\Core\DbBaseTest.cs:wiersz 44
   w TDD.DbTestHelpers.Core.DbBaseTest`1.BaseSetUp() w E:\Studia\_Asystentura\6.sem_letni_2012-2013\SAB\lab\TeamCity\TDD.Blog-master\TDD.DbTestHelpers\Core\DbBaseTest.cs:wiersz 23
</StackTrace>
        </ErrorInfo>
      </Output>
    </UnitTestResult>
    <UnitTestResult executionId="e57fe991-3eee-4f21-a778-96a6d925a730" testId="a1c08501-3fdc-7782-fe80-5cdd16bec339" testName="Database_WhenInitializedFromYaml_ContainsOnePost" computerName="SPAREK" duration="00:00:02.6332851" startTime="2013-05-22T19:12:36.0336969+02:00" endTime="2013-05-22T19:12:38.6708477+02:00" testType="13cdc9d9-ddb5-4fa4-a97d-d965ccfc6d4b" outcome="Failed" testListId="8c84fa94-04c1-424b-9868-57a2d4851a1d" relativeResultsDirectory="e57fe991-3eee-4f21-a778-96a6d925a730">
      <Output>
        <DebugTrace>Constr
SetUp
Applying fixtures
D:\Studia\semestr 10\SAB\TeamCityLab1\Blog.DAL.Tests\bin\Debug\Fixtures\posts.yml
</DebugTrace>
        <ErrorInfo>
          <Message>Initialization method Blog.DAL.Tests.RepositoryTests.BaseSetUp threw exception. System.Exception: System.Exception: Cannot read entities from table Comments.</Message>
          <StackTrace>    w TDD.DbTestHelpers.Helpers.FileHelper.FillFixturesFileFiles(Type fixtureType, DbContext context, String yamlFolderName, IEnumerable`1 yamlFullFilesNames) w E:\Studia\_Asystentura\6.sem_letni_2012-2013\SAB\lab\TeamCity\TDD.Blog-master\TDD.DbTestHelpers\Helpers\FileHelper.cs:wiersz 46
   w TDD.DbTestHelpers.Helpers.FileHelper.FillFixturesFileFiles[TFixtureType](DbContext context, String yamlFolderName, IEnumerable`1 yamlFilesNames) w E:\Studia\_Asystentura\6.sem_letni_2012-2013\SAB\lab\TeamCity\TDD.Blog-master\TDD.DbTestHelpers\Helpers\FileHelper.cs:wiersz 37
   w TDD.DbTestHelpers.Yaml.YamlDbFixture`2.FillFixtures() w E:\Studia\_Asystentura\6.sem_letni_2012-2013\SAB\lab\TeamCity\TDD.Blog-master\TDD.DbTestHelpers\Yaml\YamlDbFixture.cs:wiersz 38
   w TDD.DbTestHelpers.Core.DbBaseTest`1.ApplyFixtures() w E:\Studia\_Asystentura\6.sem_letni_2012-2013\SAB\lab\TeamCity\TDD.Blog-master\TDD.DbTestHelpers\Core\DbBaseTest.cs:wiersz 45
   w TDD.DbTestHelpers.Core.DbBaseTest`1.BaseSetUp() w E:\Studia\_Asystentura\6.sem_letni_2012-2013\SAB\lab\TeamCity\TDD.Blog-master\TDD.DbTestHelpers\Core\DbBaseTest.cs:wiersz 23
</StackTrace>
        </ErrorInfo>
      </Output>
    </UnitTestResult>
    <UnitTestResult executionId="70a0cb92-d65d-447b-8697-f345e2a90c6f" testId="a35c9170-4315-2bdb-070d-13a3313fa7f3" testName="AddPost_OnePostInDb_ReturnCorrectNumberOfPosts" computerName="SPAREK" duration="00:00:00.0108212" startTime="2013-05-22T19:12:38.6728478+02:00" endTime="2013-05-22T19:12:38.6908489+02:00" testType="13cdc9d9-ddb5-4fa4-a97d-d965ccfc6d4b" outcome="Failed" testListId="8c84fa94-04c1-424b-9868-57a2d4851a1d" relativeResultsDirectory="70a0cb92-d65d-447b-8697-f345e2a90c6f">
      <Output>
        <DebugTrace>Constr
SetUp
Applying fixtures
D:\Studia\semestr 10\SAB\TeamCityLab1\Blog.DAL.Tests\bin\Debug\Fixtures\posts.yml
</DebugTrace>
        <ErrorInfo>
          <Message>Initialization method Blog.DAL.Tests.RepositoryTests.BaseSetUp threw exception. System.Exception: System.Exception: Cannot read entities from table Comments.</Message>
          <StackTrace>    w TDD.DbTestHelpers.Helpers.FileHelper.FillFixturesFileFiles(Type fixtureType, DbContext context, String yamlFolderName, IEnumerable`1 yamlFullFilesNames) w E:\Studia\_Asystentura\6.sem_letni_2012-2013\SAB\lab\TeamCity\TDD.Blog-master\TDD.DbTestHelpers\Helpers\FileHelper.cs:wiersz 46
   w TDD.DbTestHelpers.Helpers.FileHelper.FillFixturesFileFiles[TFixtureType](DbContext context, String yamlFolderName, IEnumerable`1 yamlFilesNames) w E:\Studia\_Asystentura\6.sem_letni_2012-2013\SAB\lab\TeamCity\TDD.Blog-master\TDD.DbTestHelpers\Helpers\FileHelper.cs:wiersz 37
   w TDD.DbTestHelpers.Yaml.YamlDbFixture`2.FillFixtures() w E:\Studia\_Asystentura\6.sem_letni_2012-2013\SAB\lab\TeamCity\TDD.Blog-master\TDD.DbTestHelpers\Yaml\YamlDbFixture.cs:wiersz 38
   w TDD.DbTestHelpers.Core.DbBaseTest`1.ApplyFixtures() w E:\Studia\_Asystentura\6.sem_letni_2012-2013\SAB\lab\TeamCity\TDD.Blog-master\TDD.DbTestHelpers\Core\DbBaseTest.cs:wiersz 45
   w TDD.DbTestHelpers.Core.DbBaseTest`1.BaseSetUp() w E:\Studia\_Asystentura\6.sem_letni_2012-2013\SAB\lab\TeamCity\TDD.Blog-master\TDD.DbTestHelpers\Core\DbBaseTest.cs:wiersz 23
</StackTrace>
        </ErrorInfo>
      </Output>
    </UnitTestResult>
  </Results>
</TestRun>