﻿<?xml version="1.0" encoding="UTF-8"?>
<TestRun id="4da6ee22-33aa-45ee-88ef-9c0b5d8d5422" name="Piotrek@SPAREK 2013-05-23 19:17:26" runUser="Sparek\Piotrek" xmlns="http://microsoft.com/schemas/VisualStudio/TeamTest/2010">
  <TestSettings name="Local" id="31046817-227f-4161-9a97-5d34efa999fb">
    <Description>These are default test settings for a local test run.</Description>
    <Deployment enabled="false" runDeploymentRoot="Piotrek_SPAREK 2013-05-23 19_17_26">
      <DeploymentItem filename="D:\Studia\semestr 10\SAB\TeamCityLab1\packages\DbTestHelpers\TDD.DbTestHelpers.dll" />
      <DeploymentItem filename="D:\Studia\semestr 10\SAB\TeamCityLab1\packages\DbTestHelpers\YamlDotNet.Core.dll" />
      <DeploymentItem filename="D:\Studia\semestr 10\SAB\TeamCityLab1\Blog.DAL\bin\Debug\Blog.DAL.dll" />
      <DeploymentItem filename="D:\Studia\semestr 10\SAB\TeamCityLab1\packages\EntityFramework.5.0.0\lib\net40\EntityFramework.dll" />
      <DeploymentItem filename="D:\Studia\semestr 10\SAB\TeamCityLab1\packages\DbTestHelpers\YamlDotNet.RepresentationModel.dll" />
    </Deployment>
    <Execution>
      <TestTypeSpecific />
      <AgentRule name="Execution Agents">
      </AgentRule>
    </Execution>
  </TestSettings>
  <Times creation="2013-05-23T19:17:26.6225982+02:00" queuing="2013-05-23T19:17:26.8996140+02:00" start="2013-05-23T19:17:26.9146149+02:00" finish="2013-05-23T19:17:31.7728928+02:00" />
  <ResultSummary outcome="Failed">
    <Counters total="4" executed="4" error="0" failed="4" timeout="0" aborted="0" inconclusive="0" passedButRunAborted="0" notRunnable="0" notExecuted="0" disconnected="0" warning="0" passed="0" completed="0" inProgress="0" pending="0" />
  </ResultSummary>
  <TestDefinitions>
    <UnitTest name="AddComment_OneCommentInDb_ReturnCorrectNumberOfComments" storage="d:\studia\semestr 10\sab\teamcitylab1\blog.dal.tests\bin\debug\blog.dal.tests.dll" id="26014091-9a3f-f475-2970-afa906d13ec3">
      <Execution id="108d5650-009e-4cb9-8b8d-6fc271495f16" />
      <TestMethod codeBase="D:/Studia/semestr 10/SAB/TeamCityLab1/Blog.DAL.Tests/bin/Debug/Blog.DAL.Tests.DLL" adapterTypeName="Microsoft.VisualStudio.TestTools.TestTypes.Unit.UnitTestAdapter, Microsoft.VisualStudio.QualityTools.Tips.UnitTest.Adapter, Version=10.0.0.0, Culture=neutral, PublicKeyToken=b03f5f7f11d50a3a" className="Blog.DAL.Tests.RepositoryTests, Blog.DAL.Tests, Version=1.0.0.0, Culture=neutral, PublicKeyToken=null" name="AddComment_OneCommentInDb_ReturnCorrectNumberOfComments" />
    </UnitTest>
    <UnitTest name="AddPost_WithoutRequiredData_ThrowsException" storage="d:\studia\semestr 10\sab\teamcitylab1\blog.dal.tests\bin\debug\blog.dal.tests.dll" id="17028b1a-75d6-659c-d883-1bce7980463b">
      <Execution id="b8fb825d-9a42-4023-81fb-b929816821ba" />
      <TestMethod codeBase="D:/Studia/semestr 10/SAB/TeamCityLab1/Blog.DAL.Tests/bin/Debug/Blog.DAL.Tests.DLL" adapterTypeName="Microsoft.VisualStudio.TestTools.TestTypes.Unit.UnitTestAdapter, Microsoft.VisualStudio.QualityTools.Tips.UnitTest.Adapter, Version=10.0.0.0, Culture=neutral, PublicKeyToken=b03f5f7f11d50a3a" className="Blog.DAL.Tests.RepositoryTests, Blog.DAL.Tests, Version=1.0.0.0, Culture=neutral, PublicKeyToken=null" name="AddPost_WithoutRequiredData_ThrowsException" />
    </UnitTest>
    <UnitTest name="Database_WhenInitializedFromYaml_ContainsOnePost" storage="d:\studia\semestr 10\sab\teamcitylab1\blog.dal.tests\bin\debug\blog.dal.tests.dll" id="a1c08501-3fdc-7782-fe80-5cdd16bec339">
      <Execution id="411cba26-986e-4d1d-a303-997c034ceca2" />
      <TestMethod codeBase="D:/Studia/semestr 10/SAB/TeamCityLab1/Blog.DAL.Tests/bin/Debug/Blog.DAL.Tests.DLL" adapterTypeName="Microsoft.VisualStudio.TestTools.TestTypes.Unit.UnitTestAdapter, Microsoft.VisualStudio.QualityTools.Tips.UnitTest.Adapter, Version=10.0.0.0, Culture=neutral, PublicKeyToken=b03f5f7f11d50a3a" className="Blog.DAL.Tests.RepositoryTests, Blog.DAL.Tests, Version=1.0.0.0, Culture=neutral, PublicKeyToken=null" name="Database_WhenInitializedFromYaml_ContainsOnePost" />
    </UnitTest>
    <UnitTest name="AddPost_OnePostInDb_ReturnCorrectNumberOfPosts" storage="d:\studia\semestr 10\sab\teamcitylab1\blog.dal.tests\bin\debug\blog.dal.tests.dll" id="a35c9170-4315-2bdb-070d-13a3313fa7f3">
      <Execution id="d89ff29d-e832-4b32-8ae4-3064dd64fb05" />
      <TestMethod codeBase="D:/Studia/semestr 10/SAB/TeamCityLab1/Blog.DAL.Tests/bin/Debug/Blog.DAL.Tests.DLL" adapterTypeName="Microsoft.VisualStudio.TestTools.TestTypes.Unit.UnitTestAdapter, Microsoft.VisualStudio.QualityTools.Tips.UnitTest.Adapter, Version=10.0.0.0, Culture=neutral, PublicKeyToken=b03f5f7f11d50a3a" className="Blog.DAL.Tests.RepositoryTests, Blog.DAL.Tests, Version=1.0.0.0, Culture=neutral, PublicKeyToken=null" name="AddPost_OnePostInDb_ReturnCorrectNumberOfPosts" />
    </UnitTest>
  </TestDefinitions>
  <TestLists>
    <TestList name="Results Not in a List" id="8c84fa94-04c1-424b-9868-57a2d4851a1d" />
    <TestList name="All Loaded Results" id="19431567-8539-422a-85d7-44ee4e166bda" />
  </TestLists>
  <TestEntries>
    <TestEntry testId="17028b1a-75d6-659c-d883-1bce7980463b" executionId="b8fb825d-9a42-4023-81fb-b929816821ba" testListId="8c84fa94-04c1-424b-9868-57a2d4851a1d" />
    <TestEntry testId="26014091-9a3f-f475-2970-afa906d13ec3" executionId="108d5650-009e-4cb9-8b8d-6fc271495f16" testListId="8c84fa94-04c1-424b-9868-57a2d4851a1d" />
    <TestEntry testId="a1c08501-3fdc-7782-fe80-5cdd16bec339" executionId="411cba26-986e-4d1d-a303-997c034ceca2" testListId="8c84fa94-04c1-424b-9868-57a2d4851a1d" />
    <TestEntry testId="a35c9170-4315-2bdb-070d-13a3313fa7f3" executionId="d89ff29d-e832-4b32-8ae4-3064dd64fb05" testListId="8c84fa94-04c1-424b-9868-57a2d4851a1d" />
  </TestEntries>
  <Results>
    <UnitTestResult executionId="b8fb825d-9a42-4023-81fb-b929816821ba" testId="17028b1a-75d6-659c-d883-1bce7980463b" testName="AddPost_WithoutRequiredData_ThrowsException" computerName="SPAREK" duration="00:00:03.3187841" startTime="2013-05-23T19:17:27.0216210+02:00" endTime="2013-05-23T19:17:31.4088719+02:00" testType="13cdc9d9-ddb5-4fa4-a97d-d965ccfc6d4b" outcome="Failed" testListId="8c84fa94-04c1-424b-9868-57a2d4851a1d" relativeResultsDirectory="b8fb825d-9a42-4023-81fb-b929816821ba">
      <Output>
        <DebugTrace>Constr
SetUp
Applying fixtures
</DebugTrace>
        <ErrorInfo>
          <Message>Initialization method Blog.DAL.Tests.RepositoryTests.BaseSetUp threw exception. System.Reflection.TargetInvocationException: System.Reflection.TargetInvocationException: Obiekt docelowy wywołania zgłosił wyjątek. ---&gt; System.Data.SqlClient.SqlException: A file activation error occurred. The physical file name '\blog.mdf' may be incorrect. Diagnose and correct additional errors, and retry the operation.
CREATE DATABASE failed. Some file names listed could not be created. Check related errors..</Message>
          <StackTrace>    w System.Data.SqlClient.SqlConnection.OnError(SqlException exception, Boolean breakConnection, Action`1 wrapCloseInAction)
   w System.Data.SqlClient.SqlInternalConnection.OnError(SqlException exception, Boolean breakConnection, Action`1 wrapCloseInAction)
   w System.Data.SqlClient.TdsParser.ThrowExceptionAndWarning(TdsParserStateObject stateObj, Boolean callerHasConnectionLock, Boolean asyncClose)
   w System.Data.SqlClient.TdsParser.TryRun(RunBehavior runBehavior, SqlCommand cmdHandler, SqlDataReader dataStream, BulkCopySimpleResultSet bulkCopyHandler, TdsParserStateObject stateObj, Boolean&amp; dataReady)
   w System.Data.SqlClient.SqlCommand.RunExecuteNonQueryTds(String methodName, Boolean async, Int32 timeout)
   w System.Data.SqlClient.SqlCommand.InternalExecuteNonQuery(TaskCompletionSource`1 completion, String methodName, Boolean sendToPipe, Int32 timeout, Boolean asyncWrite)
   w System.Data.SqlClient.SqlCommand.ExecuteNonQuery()
   w System.Data.SqlClient.SqlProviderServices.&lt;&gt;c__DisplayClassa.&lt;DbCreateDatabase&gt;b__7(SqlConnection conn)
   w System.Data.SqlClient.SqlProviderServices.UsingConnection(SqlConnection sqlConnection, Action`1 act)
   w System.Data.SqlClient.SqlProviderServices.UsingMasterConnection(SqlConnection sqlConnection, Action`1 act)
   w System.Data.SqlClient.SqlProviderServices.DbCreateDatabase(DbConnection connection, Nullable`1 commandTimeout, StoreItemCollection storeItemCollection)
   w System.Data.Objects.ObjectContext.CreateDatabase()
   w System.Data.Entity.Migrations.Utilities.DatabaseCreator.Create(DbConnection connection)
   w System.Data.Entity.Migrations.DbMigrator.EnsureDatabaseExists()
   w System.Data.Entity.Migrations.DbMigrator.Update(String targetMigration)
   w System.Data.Entity.Internal.DatabaseCreator.CreateDatabase(InternalContext internalContext, Func`3 createMigrator, ObjectContext objectContext)
   w System.Data.Entity.Internal.InternalContext.CreateDatabase(ObjectContext objectContext)
   w System.Data.Entity.Database.Create(Boolean skipExistsCheck)
   w System.Data.Entity.CreateDatabaseIfNotExists`1.InitializeDatabase(TContext context)
   w System.Data.Entity.Internal.InternalContext.&lt;&gt;c__DisplayClass8.&lt;PerformDatabaseInitialization&gt;b__6()
   w System.Data.Entity.Internal.InternalContext.PerformInitializationAction(Action action)
   w System.Data.Entity.Internal.InternalContext.PerformDatabaseInitialization()
   w System.Data.Entity.Internal.LazyInternalContext.&lt;InitializeDatabase&gt;b__4(InternalContext c)
   w System.Data.Entity.Internal.RetryAction`1.PerformAction(TInput input)
   w System.Data.Entity.Internal.LazyInternalContext.InitializeDatabaseAction(Action`1 action)
   w System.Data.Entity.Internal.LazyInternalContext.InitializeDatabase()
   w System.Data.Entity.Internal.InternalContext.GetEntitySetAndBaseTypeForType(Type entityType)
   w System.Data.Entity.Internal.Linq.InternalSet`1.Initialize()
   w System.Data.Entity.Internal.Linq.InternalSet`1.GetEnumerator()
   w System.Data.Entity.Infrastructure.DbQuery`1.System.Collections.Generic.IEnumerable&lt;TResult&gt;.GetEnumerator()
   w TDD.DbTestHelpers.EF.EfExtensions.ClearTable[TEntity](DbSet`1 table) w E:\Studia\_Asystentura\6.sem_letni_2012-2013\SAB\lab\TeamCity\TDD.Blog-master\TDD.DbTestHelpers\EF\EfExtensions.cs:wiersz 13
 --- End of inner exception stack trace ---
    w System.RuntimeMethodHandle.InvokeMethod(Object target, Object[] arguments, Signature sig, Boolean constructor)
   w System.Reflection.RuntimeMethodInfo.UnsafeInvokeInternal(Object obj, Object[] parameters, Object[] arguments)
   w System.Reflection.RuntimeMethodInfo.Invoke(Object obj, BindingFlags invokeAttr, Binder binder, Object[] parameters, CultureInfo culture)
   w System.Reflection.MethodBase.Invoke(Object obj, Object[] parameters)
   w TDD.DbTestHelpers.Helpers.FileHelper.ClearTables(Type fixtureType, DbContext context) w E:\Studia\_Asystentura\6.sem_letni_2012-2013\SAB\lab\TeamCity\TDD.Blog-master\TDD.DbTestHelpers\Helpers\FileHelper.cs:wiersz 30
   w TDD.DbTestHelpers.Helpers.FileHelper.ClearTables[TFixtureType](DbContext context) w E:\Studia\_Asystentura\6.sem_letni_2012-2013\SAB\lab\TeamCity\TDD.Blog-master\TDD.DbTestHelpers\Helpers\FileHelper.cs:wiersz 19
   w TDD.DbTestHelpers.Yaml.YamlDbFixture`2.PrepareDatabase() w E:\Studia\_Asystentura\6.sem_letni_2012-2013\SAB\lab\TeamCity\TDD.Blog-master\TDD.DbTestHelpers\Yaml\YamlDbFixture.cs:wiersz 33
   w TDD.DbTestHelpers.Core.DbBaseTest`1.ApplyFixtures() w E:\Studia\_Asystentura\6.sem_letni_2012-2013\SAB\lab\TeamCity\TDD.Blog-master\TDD.DbTestHelpers\Core\DbBaseTest.cs:wiersz 44
   w TDD.DbTestHelpers.Core.DbBaseTest`1.BaseSetUp() w E:\Studia\_Asystentura\6.sem_letni_2012-2013\SAB\lab\TeamCity\TDD.Blog-master\TDD.DbTestHelpers\Core\DbBaseTest.cs:wiersz 23
</StackTrace>
        </ErrorInfo>
      </Output>
    </UnitTestResult>
    <UnitTestResult executionId="108d5650-009e-4cb9-8b8d-6fc271495f16" testId="26014091-9a3f-f475-2970-afa906d13ec3" testName="AddComment_OneCommentInDb_ReturnCorrectNumberOfComments" computerName="SPAREK" duration="00:00:00.0962031" startTime="2013-05-23T19:17:31.4118721+02:00" endTime="2013-05-23T19:17:31.5198783+02:00" testType="13cdc9d9-ddb5-4fa4-a97d-d965ccfc6d4b" outcome="Failed" testListId="8c84fa94-04c1-424b-9868-57a2d4851a1d" relativeResultsDirectory="108d5650-009e-4cb9-8b8d-6fc271495f16">
      <Output>
        <DebugTrace>Constr
SetUp
Applying fixtures
</DebugTrace>
        <ErrorInfo>
          <Message>Initialization method Blog.DAL.Tests.RepositoryTests.BaseSetUp threw exception. System.Reflection.TargetInvocationException: System.Reflection.TargetInvocationException: Obiekt docelowy wywołania zgłosił wyjątek. ---&gt; System.Data.SqlClient.SqlException: A file activation error occurred. The physical file name '\blog.mdf' may be incorrect. Diagnose and correct additional errors, and retry the operation.
CREATE DATABASE failed. Some file names listed could not be created. Check related errors..</Message>
          <StackTrace>    w System.Data.SqlClient.SqlConnection.OnError(SqlException exception, Boolean breakConnection, Action`1 wrapCloseInAction)
   w System.Data.SqlClient.SqlInternalConnection.OnError(SqlException exception, Boolean breakConnection, Action`1 wrapCloseInAction)
   w System.Data.SqlClient.TdsParser.ThrowExceptionAndWarning(TdsParserStateObject stateObj, Boolean callerHasConnectionLock, Boolean asyncClose)
   w System.Data.SqlClient.TdsParser.TryRun(RunBehavior runBehavior, SqlCommand cmdHandler, SqlDataReader dataStream, BulkCopySimpleResultSet bulkCopyHandler, TdsParserStateObject stateObj, Boolean&amp; dataReady)
   w System.Data.SqlClient.SqlCommand.RunExecuteNonQueryTds(String methodName, Boolean async, Int32 timeout)
   w System.Data.SqlClient.SqlCommand.InternalExecuteNonQuery(TaskCompletionSource`1 completion, String methodName, Boolean sendToPipe, Int32 timeout, Boolean asyncWrite)
   w System.Data.SqlClient.SqlCommand.ExecuteNonQuery()
   w System.Data.SqlClient.SqlProviderServices.&lt;&gt;c__DisplayClassa.&lt;DbCreateDatabase&gt;b__7(SqlConnection conn)
   w System.Data.SqlClient.SqlProviderServices.UsingConnection(SqlConnection sqlConnection, Action`1 act)
   w System.Data.SqlClient.SqlProviderServices.UsingMasterConnection(SqlConnection sqlConnection, Action`1 act)
   w System.Data.SqlClient.SqlProviderServices.DbCreateDatabase(DbConnection connection, Nullable`1 commandTimeout, StoreItemCollection storeItemCollection)
   w System.Data.Objects.ObjectContext.CreateDatabase()
   w System.Data.Entity.Migrations.Utilities.DatabaseCreator.Create(DbConnection connection)
   w System.Data.Entity.Migrations.DbMigrator.EnsureDatabaseExists()
   w System.Data.Entity.Migrations.DbMigrator.Update(String targetMigration)
   w System.Data.Entity.Internal.DatabaseCreator.CreateDatabase(InternalContext internalContext, Func`3 createMigrator, ObjectContext objectContext)
   w System.Data.Entity.Internal.InternalContext.CreateDatabase(ObjectContext objectContext)
   w System.Data.Entity.Database.Create(Boolean skipExistsCheck)
   w System.Data.Entity.CreateDatabaseIfNotExists`1.InitializeDatabase(TContext context)
   w System.Data.Entity.Internal.InternalContext.&lt;&gt;c__DisplayClass8.&lt;PerformDatabaseInitialization&gt;b__6()
   w System.Data.Entity.Internal.InternalContext.PerformInitializationAction(Action action)
   w System.Data.Entity.Internal.InternalContext.PerformDatabaseInitialization()
   w System.Data.Entity.Internal.LazyInternalContext.&lt;InitializeDatabase&gt;b__4(InternalContext c)
   w System.Data.Entity.Internal.RetryAction`1.PerformAction(TInput input)
   w System.Data.Entity.Internal.LazyInternalContext.InitializeDatabaseAction(Action`1 action)
   w System.Data.Entity.Internal.LazyInternalContext.InitializeDatabase()
   w System.Data.Entity.Internal.InternalContext.GetEntitySetAndBaseTypeForType(Type entityType)
   w System.Data.Entity.Internal.Linq.InternalSet`1.Initialize()
   w System.Data.Entity.Internal.Linq.InternalSet`1.GetEnumerator()
   w System.Data.Entity.Infrastructure.DbQuery`1.System.Collections.Generic.IEnumerable&lt;TResult&gt;.GetEnumerator()
   w TDD.DbTestHelpers.EF.EfExtensions.ClearTable[TEntity](DbSet`1 table) w E:\Studia\_Asystentura\6.sem_letni_2012-2013\SAB\lab\TeamCity\TDD.Blog-master\TDD.DbTestHelpers\EF\EfExtensions.cs:wiersz 13
 --- End of inner exception stack trace ---
    w System.RuntimeMethodHandle.InvokeMethod(Object target, Object[] arguments, Signature sig, Boolean constructor)
   w System.Reflection.RuntimeMethodInfo.UnsafeInvokeInternal(Object obj, Object[] parameters, Object[] arguments)
   w System.Reflection.RuntimeMethodInfo.Invoke(Object obj, BindingFlags invokeAttr, Binder binder, Object[] parameters, CultureInfo culture)
   w System.Reflection.MethodBase.Invoke(Object obj, Object[] parameters)
   w TDD.DbTestHelpers.Helpers.FileHelper.ClearTables(Type fixtureType, DbContext context) w E:\Studia\_Asystentura\6.sem_letni_2012-2013\SAB\lab\TeamCity\TDD.Blog-master\TDD.DbTestHelpers\Helpers\FileHelper.cs:wiersz 30
   w TDD.DbTestHelpers.Helpers.FileHelper.ClearTables[TFixtureType](DbContext context) w E:\Studia\_Asystentura\6.sem_letni_2012-2013\SAB\lab\TeamCity\TDD.Blog-master\TDD.DbTestHelpers\Helpers\FileHelper.cs:wiersz 19
   w TDD.DbTestHelpers.Yaml.YamlDbFixture`2.PrepareDatabase() w E:\Studia\_Asystentura\6.sem_letni_2012-2013\SAB\lab\TeamCity\TDD.Blog-master\TDD.DbTestHelpers\Yaml\YamlDbFixture.cs:wiersz 33
   w TDD.DbTestHelpers.Core.DbBaseTest`1.ApplyFixtures() w E:\Studia\_Asystentura\6.sem_letni_2012-2013\SAB\lab\TeamCity\TDD.Blog-master\TDD.DbTestHelpers\Core\DbBaseTest.cs:wiersz 44
   w TDD.DbTestHelpers.Core.DbBaseTest`1.BaseSetUp() w E:\Studia\_Asystentura\6.sem_letni_2012-2013\SAB\lab\TeamCity\TDD.Blog-master\TDD.DbTestHelpers\Core\DbBaseTest.cs:wiersz 23
</StackTrace>
        </ErrorInfo>
      </Output>
    </UnitTestResult>
    <UnitTestResult executionId="411cba26-986e-4d1d-a303-997c034ceca2" testId="a1c08501-3fdc-7782-fe80-5cdd16bec339" testName="Database_WhenInitializedFromYaml_ContainsOnePost" computerName="SPAREK" duration="00:00:00.0767683" startTime="2013-05-23T19:17:31.5228785+02:00" endTime="2013-05-23T19:17:31.6068833+02:00" testType="13cdc9d9-ddb5-4fa4-a97d-d965ccfc6d4b" outcome="Failed" testListId="8c84fa94-04c1-424b-9868-57a2d4851a1d" relativeResultsDirectory="411cba26-986e-4d1d-a303-997c034ceca2">
      <Output>
        <DebugTrace>Constr
SetUp
Applying fixtures
</DebugTrace>
        <ErrorInfo>
          <Message>Initialization method Blog.DAL.Tests.RepositoryTests.BaseSetUp threw exception. System.Reflection.TargetInvocationException: System.Reflection.TargetInvocationException: Obiekt docelowy wywołania zgłosił wyjątek. ---&gt; System.Data.SqlClient.SqlException: A file activation error occurred. The physical file name '\blog.mdf' may be incorrect. Diagnose and correct additional errors, and retry the operation.
CREATE DATABASE failed. Some file names listed could not be created. Check related errors..</Message>
          <StackTrace>    w System.Data.SqlClient.SqlConnection.OnError(SqlException exception, Boolean breakConnection, Action`1 wrapCloseInAction)
   w System.Data.SqlClient.SqlInternalConnection.OnError(SqlException exception, Boolean breakConnection, Action`1 wrapCloseInAction)
   w System.Data.SqlClient.TdsParser.ThrowExceptionAndWarning(TdsParserStateObject stateObj, Boolean callerHasConnectionLock, Boolean asyncClose)
   w System.Data.SqlClient.TdsParser.TryRun(RunBehavior runBehavior, SqlCommand cmdHandler, SqlDataReader dataStream, BulkCopySimpleResultSet bulkCopyHandler, TdsParserStateObject stateObj, Boolean&amp; dataReady)
   w System.Data.SqlClient.SqlCommand.RunExecuteNonQueryTds(String methodName, Boolean async, Int32 timeout)
   w System.Data.SqlClient.SqlCommand.InternalExecuteNonQuery(TaskCompletionSource`1 completion, String methodName, Boolean sendToPipe, Int32 timeout, Boolean asyncWrite)
   w System.Data.SqlClient.SqlCommand.ExecuteNonQuery()
   w System.Data.SqlClient.SqlProviderServices.&lt;&gt;c__DisplayClassa.&lt;DbCreateDatabase&gt;b__7(SqlConnection conn)
   w System.Data.SqlClient.SqlProviderServices.UsingConnection(SqlConnection sqlConnection, Action`1 act)
   w System.Data.SqlClient.SqlProviderServices.UsingMasterConnection(SqlConnection sqlConnection, Action`1 act)
   w System.Data.SqlClient.SqlProviderServices.DbCreateDatabase(DbConnection connection, Nullable`1 commandTimeout, StoreItemCollection storeItemCollection)
   w System.Data.Objects.ObjectContext.CreateDatabase()
   w System.Data.Entity.Migrations.Utilities.DatabaseCreator.Create(DbConnection connection)
   w System.Data.Entity.Migrations.DbMigrator.EnsureDatabaseExists()
   w System.Data.Entity.Migrations.DbMigrator.Update(String targetMigration)
   w System.Data.Entity.Internal.DatabaseCreator.CreateDatabase(InternalContext internalContext, Func`3 createMigrator, ObjectContext objectContext)
   w System.Data.Entity.Internal.InternalContext.CreateDatabase(ObjectContext objectContext)
   w System.Data.Entity.Database.Create(Boolean skipExistsCheck)
   w System.Data.Entity.CreateDatabaseIfNotExists`1.InitializeDatabase(TContext context)
   w System.Data.Entity.Internal.InternalContext.&lt;&gt;c__DisplayClass8.&lt;PerformDatabaseInitialization&gt;b__6()
   w System.Data.Entity.Internal.InternalContext.PerformInitializationAction(Action action)
   w System.Data.Entity.Internal.InternalContext.PerformDatabaseInitialization()
   w System.Data.Entity.Internal.LazyInternalContext.&lt;InitializeDatabase&gt;b__4(InternalContext c)
   w System.Data.Entity.Internal.RetryAction`1.PerformAction(TInput input)
   w System.Data.Entity.Internal.LazyInternalContext.InitializeDatabaseAction(Action`1 action)
   w System.Data.Entity.Internal.LazyInternalContext.InitializeDatabase()
   w System.Data.Entity.Internal.InternalContext.GetEntitySetAndBaseTypeForType(Type entityType)
   w System.Data.Entity.Internal.Linq.InternalSet`1.Initialize()
   w System.Data.Entity.Internal.Linq.InternalSet`1.GetEnumerator()
   w System.Data.Entity.Infrastructure.DbQuery`1.System.Collections.Generic.IEnumerable&lt;TResult&gt;.GetEnumerator()
   w TDD.DbTestHelpers.EF.EfExtensions.ClearTable[TEntity](DbSet`1 table) w E:\Studia\_Asystentura\6.sem_letni_2012-2013\SAB\lab\TeamCity\TDD.Blog-master\TDD.DbTestHelpers\EF\EfExtensions.cs:wiersz 13
 --- End of inner exception stack trace ---
    w System.RuntimeMethodHandle.InvokeMethod(Object target, Object[] arguments, Signature sig, Boolean constructor)
   w System.Reflection.RuntimeMethodInfo.UnsafeInvokeInternal(Object obj, Object[] parameters, Object[] arguments)
   w System.Reflection.RuntimeMethodInfo.Invoke(Object obj, BindingFlags invokeAttr, Binder binder, Object[] parameters, CultureInfo culture)
   w System.Reflection.MethodBase.Invoke(Object obj, Object[] parameters)
   w TDD.DbTestHelpers.Helpers.FileHelper.ClearTables(Type fixtureType, DbContext context) w E:\Studia\_Asystentura\6.sem_letni_2012-2013\SAB\lab\TeamCity\TDD.Blog-master\TDD.DbTestHelpers\Helpers\FileHelper.cs:wiersz 30
   w TDD.DbTestHelpers.Helpers.FileHelper.ClearTables[TFixtureType](DbContext context) w E:\Studia\_Asystentura\6.sem_letni_2012-2013\SAB\lab\TeamCity\TDD.Blog-master\TDD.DbTestHelpers\Helpers\FileHelper.cs:wiersz 19
   w TDD.DbTestHelpers.Yaml.YamlDbFixture`2.PrepareDatabase() w E:\Studia\_Asystentura\6.sem_letni_2012-2013\SAB\lab\TeamCity\TDD.Blog-master\TDD.DbTestHelpers\Yaml\YamlDbFixture.cs:wiersz 33
   w TDD.DbTestHelpers.Core.DbBaseTest`1.ApplyFixtures() w E:\Studia\_Asystentura\6.sem_letni_2012-2013\SAB\lab\TeamCity\TDD.Blog-master\TDD.DbTestHelpers\Core\DbBaseTest.cs:wiersz 44
   w TDD.DbTestHelpers.Core.DbBaseTest`1.BaseSetUp() w E:\Studia\_Asystentura\6.sem_letni_2012-2013\SAB\lab\TeamCity\TDD.Blog-master\TDD.DbTestHelpers\Core\DbBaseTest.cs:wiersz 23
</StackTrace>
        </ErrorInfo>
      </Output>
    </UnitTestResult>
    <UnitTestResult executionId="d89ff29d-e832-4b32-8ae4-3064dd64fb05" testId="a35c9170-4315-2bdb-070d-13a3313fa7f3" testName="AddPost_OnePostInDb_ReturnCorrectNumberOfPosts" computerName="SPAREK" duration="00:00:00.1061010" startTime="2013-05-23T19:17:31.6108835+02:00" endTime="2013-05-23T19:17:31.7248900+02:00" testType="13cdc9d9-ddb5-4fa4-a97d-d965ccfc6d4b" outcome="Failed" testListId="8c84fa94-04c1-424b-9868-57a2d4851a1d" relativeResultsDirectory="d89ff29d-e832-4b32-8ae4-3064dd64fb05">
      <Output>
        <DebugTrace>Constr
SetUp
Applying fixtures
</DebugTrace>
        <ErrorInfo>
          <Message>Initialization method Blog.DAL.Tests.RepositoryTests.BaseSetUp threw exception. System.Reflection.TargetInvocationException: System.Reflection.TargetInvocationException: Obiekt docelowy wywołania zgłosił wyjątek. ---&gt; System.Data.SqlClient.SqlException: A file activation error occurred. The physical file name '\blog.mdf' may be incorrect. Diagnose and correct additional errors, and retry the operation.
CREATE DATABASE failed. Some file names listed could not be created. Check related errors..</Message>
          <StackTrace>    w System.Data.SqlClient.SqlConnection.OnError(SqlException exception, Boolean breakConnection, Action`1 wrapCloseInAction)
   w System.Data.SqlClient.SqlInternalConnection.OnError(SqlException exception, Boolean breakConnection, Action`1 wrapCloseInAction)
   w System.Data.SqlClient.TdsParser.ThrowExceptionAndWarning(TdsParserStateObject stateObj, Boolean callerHasConnectionLock, Boolean asyncClose)
   w System.Data.SqlClient.TdsParser.TryRun(RunBehavior runBehavior, SqlCommand cmdHandler, SqlDataReader dataStream, BulkCopySimpleResultSet bulkCopyHandler, TdsParserStateObject stateObj, Boolean&amp; dataReady)
   w System.Data.SqlClient.SqlCommand.RunExecuteNonQueryTds(String methodName, Boolean async, Int32 timeout)
   w System.Data.SqlClient.SqlCommand.InternalExecuteNonQuery(TaskCompletionSource`1 completion, String methodName, Boolean sendToPipe, Int32 timeout, Boolean asyncWrite)
   w System.Data.SqlClient.SqlCommand.ExecuteNonQuery()
   w System.Data.SqlClient.SqlProviderServices.&lt;&gt;c__DisplayClassa.&lt;DbCreateDatabase&gt;b__7(SqlConnection conn)
   w System.Data.SqlClient.SqlProviderServices.UsingConnection(SqlConnection sqlConnection, Action`1 act)
   w System.Data.SqlClient.SqlProviderServices.UsingMasterConnection(SqlConnection sqlConnection, Action`1 act)
   w System.Data.SqlClient.SqlProviderServices.DbCreateDatabase(DbConnection connection, Nullable`1 commandTimeout, StoreItemCollection storeItemCollection)
   w System.Data.Objects.ObjectContext.CreateDatabase()
   w System.Data.Entity.Migrations.Utilities.DatabaseCreator.Create(DbConnection connection)
   w System.Data.Entity.Migrations.DbMigrator.EnsureDatabaseExists()
   w System.Data.Entity.Migrations.DbMigrator.Update(String targetMigration)
   w System.Data.Entity.Internal.DatabaseCreator.CreateDatabase(InternalContext internalContext, Func`3 createMigrator, ObjectContext objectContext)
   w System.Data.Entity.Internal.InternalContext.CreateDatabase(ObjectContext objectContext)
   w System.Data.Entity.Database.Create(Boolean skipExistsCheck)
   w System.Data.Entity.CreateDatabaseIfNotExists`1.InitializeDatabase(TContext context)
   w System.Data.Entity.Internal.InternalContext.&lt;&gt;c__DisplayClass8.&lt;PerformDatabaseInitialization&gt;b__6()
   w System.Data.Entity.Internal.InternalContext.PerformInitializationAction(Action action)
   w System.Data.Entity.Internal.InternalContext.PerformDatabaseInitialization()
   w System.Data.Entity.Internal.LazyInternalContext.&lt;InitializeDatabase&gt;b__4(InternalContext c)
   w System.Data.Entity.Internal.RetryAction`1.PerformAction(TInput input)
   w System.Data.Entity.Internal.LazyInternalContext.InitializeDatabaseAction(Action`1 action)
   w System.Data.Entity.Internal.LazyInternalContext.InitializeDatabase()
   w System.Data.Entity.Internal.InternalContext.GetEntitySetAndBaseTypeForType(Type entityType)
   w System.Data.Entity.Internal.Linq.InternalSet`1.Initialize()
   w System.Data.Entity.Internal.Linq.InternalSet`1.GetEnumerator()
   w System.Data.Entity.Infrastructure.DbQuery`1.System.Collections.Generic.IEnumerable&lt;TResult&gt;.GetEnumerator()
   w TDD.DbTestHelpers.EF.EfExtensions.ClearTable[TEntity](DbSet`1 table) w E:\Studia\_Asystentura\6.sem_letni_2012-2013\SAB\lab\TeamCity\TDD.Blog-master\TDD.DbTestHelpers\EF\EfExtensions.cs:wiersz 13
 --- End of inner exception stack trace ---
    w System.RuntimeMethodHandle.InvokeMethod(Object target, Object[] arguments, Signature sig, Boolean constructor)
   w System.Reflection.RuntimeMethodInfo.UnsafeInvokeInternal(Object obj, Object[] parameters, Object[] arguments)
   w System.Reflection.RuntimeMethodInfo.Invoke(Object obj, BindingFlags invokeAttr, Binder binder, Object[] parameters, CultureInfo culture)
   w System.Reflection.MethodBase.Invoke(Object obj, Object[] parameters)
   w TDD.DbTestHelpers.Helpers.FileHelper.ClearTables(Type fixtureType, DbContext context) w E:\Studia\_Asystentura\6.sem_letni_2012-2013\SAB\lab\TeamCity\TDD.Blog-master\TDD.DbTestHelpers\Helpers\FileHelper.cs:wiersz 30
   w TDD.DbTestHelpers.Helpers.FileHelper.ClearTables[TFixtureType](DbContext context) w E:\Studia\_Asystentura\6.sem_letni_2012-2013\SAB\lab\TeamCity\TDD.Blog-master\TDD.DbTestHelpers\Helpers\FileHelper.cs:wiersz 19
   w TDD.DbTestHelpers.Yaml.YamlDbFixture`2.PrepareDatabase() w E:\Studia\_Asystentura\6.sem_letni_2012-2013\SAB\lab\TeamCity\TDD.Blog-master\TDD.DbTestHelpers\Yaml\YamlDbFixture.cs:wiersz 33
   w TDD.DbTestHelpers.Core.DbBaseTest`1.ApplyFixtures() w E:\Studia\_Asystentura\6.sem_letni_2012-2013\SAB\lab\TeamCity\TDD.Blog-master\TDD.DbTestHelpers\Core\DbBaseTest.cs:wiersz 44
   w TDD.DbTestHelpers.Core.DbBaseTest`1.BaseSetUp() w E:\Studia\_Asystentura\6.sem_letni_2012-2013\SAB\lab\TeamCity\TDD.Blog-master\TDD.DbTestHelpers\Core\DbBaseTest.cs:wiersz 23
</StackTrace>
        </ErrorInfo>
      </Output>
    </UnitTestResult>
  </Results>
</TestRun>