﻿<?xml version="1.0" encoding="UTF-8"?>
<TestRun id="f8f39896-94ac-419c-950c-ab674a381011" name="Piotrek@SPAREK 2013-05-22 19:29:56" runUser="Sparek\Piotrek" xmlns="http://microsoft.com/schemas/VisualStudio/TeamTest/2010">
  <TestSettings name="Local" id="31046817-227f-4161-9a97-5d34efa999fb">
    <Description>These are default test settings for a local test run.</Description>
    <Deployment enabled="false" runDeploymentRoot="Piotrek_SPAREK 2013-05-22 19_29_56">
      <DeploymentItem filename="D:\Studia\semestr 10\SAB\TeamCityLab1\packages\DbTestHelpers\TDD.DbTestHelpers.dll" />
      <DeploymentItem filename="D:\Studia\semestr 10\SAB\TeamCityLab1\packages\DbTestHelpers\YamlDotNet.Core.dll" />
      <DeploymentItem filename="D:\Studia\semestr 10\SAB\TeamCityLab1\Blog.DAL\bin\Debug\Blog.DAL.dll" />
      <DeploymentItem filename="D:\Studia\semestr 10\SAB\TeamCityLab1\packages\EntityFramework.5.0.0\lib\net40\EntityFramework.dll" />
      <DeploymentItem filename="D:\Studia\semestr 10\SAB\TeamCityLab1\packages\DbTestHelpers\YamlDotNet.RepresentationModel.dll" />
    </Deployment>
    <Execution>
      <TestTypeSpecific />
      <AgentRule name="Execution Agents">
      </AgentRule>
    </Execution>
  </TestSettings>
  <Times creation="2013-05-22T19:29:56.1661891+02:00" queuing="2013-05-22T19:29:56.2701950+02:00" start="2013-05-22T19:29:56.2761954+02:00" finish="2013-05-22T19:29:58.5493254+02:00" />
  <ResultSummary outcome="Failed">
    <Counters total="3" executed="3" error="0" failed="3" timeout="0" aborted="0" inconclusive="0" passedButRunAborted="0" notRunnable="0" notExecuted="0" disconnected="0" warning="0" passed="0" completed="0" inProgress="0" pending="0" />
  </ResultSummary>
  <TestDefinitions>
    <UnitTest name="AddPost_WithoutRequiredData_ThrowsException" storage="d:\studia\semestr 10\sab\teamcitylab1\blog.dal.tests\bin\debug\blog.dal.tests.dll" id="17028b1a-75d6-659c-d883-1bce7980463b">
      <Execution id="72af608d-a3a6-4362-8648-4447f194eeb5" />
      <TestMethod codeBase="D:/Studia/semestr 10/SAB/TeamCityLab1/Blog.DAL.Tests/bin/Debug/Blog.DAL.Tests.DLL" adapterTypeName="Microsoft.VisualStudio.TestTools.TestTypes.Unit.UnitTestAdapter, Microsoft.VisualStudio.QualityTools.Tips.UnitTest.Adapter, Version=10.0.0.0, Culture=neutral, PublicKeyToken=b03f5f7f11d50a3a" className="Blog.DAL.Tests.RepositoryTests, Blog.DAL.Tests, Version=1.0.0.0, Culture=neutral, PublicKeyToken=null" name="AddPost_WithoutRequiredData_ThrowsException" />
    </UnitTest>
    <UnitTest name="Database_WhenInitializedFromYaml_ContainsOnePost" storage="d:\studia\semestr 10\sab\teamcitylab1\blog.dal.tests\bin\debug\blog.dal.tests.dll" id="a1c08501-3fdc-7782-fe80-5cdd16bec339">
      <Execution id="ab1f3cdf-a604-4cff-a256-6bae8c3da86f" />
      <TestMethod codeBase="D:/Studia/semestr 10/SAB/TeamCityLab1/Blog.DAL.Tests/bin/Debug/Blog.DAL.Tests.DLL" adapterTypeName="Microsoft.VisualStudio.TestTools.TestTypes.Unit.UnitTestAdapter, Microsoft.VisualStudio.QualityTools.Tips.UnitTest.Adapter, Version=10.0.0.0, Culture=neutral, PublicKeyToken=b03f5f7f11d50a3a" className="Blog.DAL.Tests.RepositoryTests, Blog.DAL.Tests, Version=1.0.0.0, Culture=neutral, PublicKeyToken=null" name="Database_WhenInitializedFromYaml_ContainsOnePost" />
    </UnitTest>
    <UnitTest name="AddPost_OnePostInDb_ReturnCorrectNumberOfPosts" storage="d:\studia\semestr 10\sab\teamcitylab1\blog.dal.tests\bin\debug\blog.dal.tests.dll" id="a35c9170-4315-2bdb-070d-13a3313fa7f3">
      <Execution id="c0847657-947a-4c72-bf6a-9a0e4e85e75e" />
      <TestMethod codeBase="D:/Studia/semestr 10/SAB/TeamCityLab1/Blog.DAL.Tests/bin/Debug/Blog.DAL.Tests.DLL" adapterTypeName="Microsoft.VisualStudio.TestTools.TestTypes.Unit.UnitTestAdapter, Microsoft.VisualStudio.QualityTools.Tips.UnitTest.Adapter, Version=10.0.0.0, Culture=neutral, PublicKeyToken=b03f5f7f11d50a3a" className="Blog.DAL.Tests.RepositoryTests, Blog.DAL.Tests, Version=1.0.0.0, Culture=neutral, PublicKeyToken=null" name="AddPost_OnePostInDb_ReturnCorrectNumberOfPosts" />
    </UnitTest>
  </TestDefinitions>
  <TestLists>
    <TestList name="Results Not in a List" id="8c84fa94-04c1-424b-9868-57a2d4851a1d" />
    <TestList name="All Loaded Results" id="19431567-8539-422a-85d7-44ee4e166bda" />
  </TestLists>
  <TestEntries>
    <TestEntry testId="17028b1a-75d6-659c-d883-1bce7980463b" executionId="72af608d-a3a6-4362-8648-4447f194eeb5" testListId="8c84fa94-04c1-424b-9868-57a2d4851a1d" />
    <TestEntry testId="a1c08501-3fdc-7782-fe80-5cdd16bec339" executionId="ab1f3cdf-a604-4cff-a256-6bae8c3da86f" testListId="8c84fa94-04c1-424b-9868-57a2d4851a1d" />
    <TestEntry testId="a35c9170-4315-2bdb-070d-13a3313fa7f3" executionId="c0847657-947a-4c72-bf6a-9a0e4e85e75e" testListId="8c84fa94-04c1-424b-9868-57a2d4851a1d" />
  </TestEntries>
  <Results>
    <UnitTestResult executionId="72af608d-a3a6-4362-8648-4447f194eeb5" testId="17028b1a-75d6-659c-d883-1bce7980463b" testName="AddPost_WithoutRequiredData_ThrowsException" computerName="SPAREK" duration="00:00:01.4991857" startTime="2013-05-22T19:29:56.5202093+02:00" endTime="2013-05-22T19:29:58.3733153+02:00" testType="13cdc9d9-ddb5-4fa4-a97d-d965ccfc6d4b" outcome="Failed" testListId="8c84fa94-04c1-424b-9868-57a2d4851a1d" relativeResultsDirectory="72af608d-a3a6-4362-8648-4447f194eeb5">
      <Output>
        <DebugTrace>Constr
SetUp
Applying fixtures
D:\Studia\semestr 10\SAB\TeamCityLab1\Blog.DAL.Tests\bin\Debug\Fixtures\posts.yml
D:\Studia\semestr 10\SAB\TeamCityLab1\Blog.DAL.Tests\bin\Debug\Fixtures\comments.yml
</DebugTrace>
        <ErrorInfo>
          <Message>Initialization method Blog.DAL.Tests.RepositoryTests.BaseSetUp threw exception. System.Exception: System.Exception: Cannot deserialize YAML file. See inner exception. ---&gt; System.Exception: Specified file comments.yml does not exist in specifiled folder Fixtures. Full path: D:\Studia\semestr 10\SAB\TeamCityLab1\Blog.DAL.Tests\bin\Debug\Fixtures\comments.yml..</Message>
          <StackTrace>    w TDD.DbTestHelpers.Helpers.FileHelper.GetAllYamlConfiguration(IEnumerable`1 yamlFilesNames, String yamlFolderName) w E:\Studia\_Asystentura\6.sem_letni_2012-2013\SAB\lab\TeamCity\TDD.Blog-master\TDD.DbTestHelpers\Helpers\FileHelper.cs:wiersz 87
   w TDD.DbTestHelpers.Helpers.FileHelper.GetFixutresFromYaml(Type fixtureType, String yamlFolderName, IEnumerable`1 yamlFullFilesNames) w E:\Studia\_Asystentura\6.sem_letni_2012-2013\SAB\lab\TeamCity\TDD.Blog-master\TDD.DbTestHelpers\Helpers\FileHelper.cs:wiersz 69
 --- End of inner exception stack trace ---
    w TDD.DbTestHelpers.Helpers.FileHelper.GetFixutresFromYaml(Type fixtureType, String yamlFolderName, IEnumerable`1 yamlFullFilesNames) w E:\Studia\_Asystentura\6.sem_letni_2012-2013\SAB\lab\TeamCity\TDD.Blog-master\TDD.DbTestHelpers\Helpers\FileHelper.cs:wiersz 73
   w TDD.DbTestHelpers.Helpers.FileHelper.FillFixturesFileFiles(Type fixtureType, DbContext context, String yamlFolderName, IEnumerable`1 yamlFullFilesNames) w E:\Studia\_Asystentura\6.sem_letni_2012-2013\SAB\lab\TeamCity\TDD.Blog-master\TDD.DbTestHelpers\Helpers\FileHelper.cs:wiersz 42
   w TDD.DbTestHelpers.Helpers.FileHelper.FillFixturesFileFiles[TFixtureType](DbContext context, String yamlFolderName, IEnumerable`1 yamlFilesNames) w E:\Studia\_Asystentura\6.sem_letni_2012-2013\SAB\lab\TeamCity\TDD.Blog-master\TDD.DbTestHelpers\Helpers\FileHelper.cs:wiersz 37
   w TDD.DbTestHelpers.Yaml.YamlDbFixture`2.FillFixtures() w E:\Studia\_Asystentura\6.sem_letni_2012-2013\SAB\lab\TeamCity\TDD.Blog-master\TDD.DbTestHelpers\Yaml\YamlDbFixture.cs:wiersz 38
   w TDD.DbTestHelpers.Core.DbBaseTest`1.ApplyFixtures() w E:\Studia\_Asystentura\6.sem_letni_2012-2013\SAB\lab\TeamCity\TDD.Blog-master\TDD.DbTestHelpers\Core\DbBaseTest.cs:wiersz 45
   w TDD.DbTestHelpers.Core.DbBaseTest`1.BaseSetUp() w E:\Studia\_Asystentura\6.sem_letni_2012-2013\SAB\lab\TeamCity\TDD.Blog-master\TDD.DbTestHelpers\Core\DbBaseTest.cs:wiersz 23
</StackTrace>
        </ErrorInfo>
      </Output>
    </UnitTestResult>
    <UnitTestResult executionId="ab1f3cdf-a604-4cff-a256-6bae8c3da86f" testId="a1c08501-3fdc-7782-fe80-5cdd16bec339" testName="Database_WhenInitializedFromYaml_ContainsOnePost" computerName="SPAREK" duration="00:00:00.0295472" startTime="2013-05-22T19:29:58.3913163+02:00" endTime="2013-05-22T19:29:58.4253183+02:00" testType="13cdc9d9-ddb5-4fa4-a97d-d965ccfc6d4b" outcome="Failed" testListId="8c84fa94-04c1-424b-9868-57a2d4851a1d" relativeResultsDirectory="ab1f3cdf-a604-4cff-a256-6bae8c3da86f">
      <Output>
        <DebugTrace>Constr
SetUp
Applying fixtures
D:\Studia\semestr 10\SAB\TeamCityLab1\Blog.DAL.Tests\bin\Debug\Fixtures\posts.yml
D:\Studia\semestr 10\SAB\TeamCityLab1\Blog.DAL.Tests\bin\Debug\Fixtures\comments.yml
</DebugTrace>
        <ErrorInfo>
          <Message>Initialization method Blog.DAL.Tests.RepositoryTests.BaseSetUp threw exception. System.Exception: System.Exception: Cannot deserialize YAML file. See inner exception. ---&gt; System.Exception: Specified file comments.yml does not exist in specifiled folder Fixtures. Full path: D:\Studia\semestr 10\SAB\TeamCityLab1\Blog.DAL.Tests\bin\Debug\Fixtures\comments.yml..</Message>
          <StackTrace>    w TDD.DbTestHelpers.Helpers.FileHelper.GetAllYamlConfiguration(IEnumerable`1 yamlFilesNames, String yamlFolderName) w E:\Studia\_Asystentura\6.sem_letni_2012-2013\SAB\lab\TeamCity\TDD.Blog-master\TDD.DbTestHelpers\Helpers\FileHelper.cs:wiersz 87
   w TDD.DbTestHelpers.Helpers.FileHelper.GetFixutresFromYaml(Type fixtureType, String yamlFolderName, IEnumerable`1 yamlFullFilesNames) w E:\Studia\_Asystentura\6.sem_letni_2012-2013\SAB\lab\TeamCity\TDD.Blog-master\TDD.DbTestHelpers\Helpers\FileHelper.cs:wiersz 69
 --- End of inner exception stack trace ---
    w TDD.DbTestHelpers.Helpers.FileHelper.GetFixutresFromYaml(Type fixtureType, String yamlFolderName, IEnumerable`1 yamlFullFilesNames) w E:\Studia\_Asystentura\6.sem_letni_2012-2013\SAB\lab\TeamCity\TDD.Blog-master\TDD.DbTestHelpers\Helpers\FileHelper.cs:wiersz 73
   w TDD.DbTestHelpers.Helpers.FileHelper.FillFixturesFileFiles(Type fixtureType, DbContext context, String yamlFolderName, IEnumerable`1 yamlFullFilesNames) w E:\Studia\_Asystentura\6.sem_letni_2012-2013\SAB\lab\TeamCity\TDD.Blog-master\TDD.DbTestHelpers\Helpers\FileHelper.cs:wiersz 42
   w TDD.DbTestHelpers.Helpers.FileHelper.FillFixturesFileFiles[TFixtureType](DbContext context, String yamlFolderName, IEnumerable`1 yamlFilesNames) w E:\Studia\_Asystentura\6.sem_letni_2012-2013\SAB\lab\TeamCity\TDD.Blog-master\TDD.DbTestHelpers\Helpers\FileHelper.cs:wiersz 37
   w TDD.DbTestHelpers.Yaml.YamlDbFixture`2.FillFixtures() w E:\Studia\_Asystentura\6.sem_letni_2012-2013\SAB\lab\TeamCity\TDD.Blog-master\TDD.DbTestHelpers\Yaml\YamlDbFixture.cs:wiersz 38
   w TDD.DbTestHelpers.Core.DbBaseTest`1.ApplyFixtures() w E:\Studia\_Asystentura\6.sem_letni_2012-2013\SAB\lab\TeamCity\TDD.Blog-master\TDD.DbTestHelpers\Core\DbBaseTest.cs:wiersz 45
   w TDD.DbTestHelpers.Core.DbBaseTest`1.BaseSetUp() w E:\Studia\_Asystentura\6.sem_letni_2012-2013\SAB\lab\TeamCity\TDD.Blog-master\TDD.DbTestHelpers\Core\DbBaseTest.cs:wiersz 23
</StackTrace>
        </ErrorInfo>
      </Output>
    </UnitTestResult>
    <UnitTestResult executionId="c0847657-947a-4c72-bf6a-9a0e4e85e75e" testId="a35c9170-4315-2bdb-070d-13a3313fa7f3" testName="AddPost_OnePostInDb_ReturnCorrectNumberOfPosts" computerName="SPAREK" duration="00:00:00.0126473" startTime="2013-05-22T19:29:58.4283185+02:00" endTime="2013-05-22T19:29:58.4533199+02:00" testType="13cdc9d9-ddb5-4fa4-a97d-d965ccfc6d4b" outcome="Failed" testListId="8c84fa94-04c1-424b-9868-57a2d4851a1d" relativeResultsDirectory="c0847657-947a-4c72-bf6a-9a0e4e85e75e">
      <Output>
        <DebugTrace>Constr
SetUp
Applying fixtures
D:\Studia\semestr 10\SAB\TeamCityLab1\Blog.DAL.Tests\bin\Debug\Fixtures\posts.yml
D:\Studia\semestr 10\SAB\TeamCityLab1\Blog.DAL.Tests\bin\Debug\Fixtures\comments.yml
</DebugTrace>
        <ErrorInfo>
          <Message>Initialization method Blog.DAL.Tests.RepositoryTests.BaseSetUp threw exception. System.Exception: System.Exception: Cannot deserialize YAML file. See inner exception. ---&gt; System.Exception: Specified file comments.yml does not exist in specifiled folder Fixtures. Full path: D:\Studia\semestr 10\SAB\TeamCityLab1\Blog.DAL.Tests\bin\Debug\Fixtures\comments.yml..</Message>
          <StackTrace>    w TDD.DbTestHelpers.Helpers.FileHelper.GetAllYamlConfiguration(IEnumerable`1 yamlFilesNames, String yamlFolderName) w E:\Studia\_Asystentura\6.sem_letni_2012-2013\SAB\lab\TeamCity\TDD.Blog-master\TDD.DbTestHelpers\Helpers\FileHelper.cs:wiersz 87
   w TDD.DbTestHelpers.Helpers.FileHelper.GetFixutresFromYaml(Type fixtureType, String yamlFolderName, IEnumerable`1 yamlFullFilesNames) w E:\Studia\_Asystentura\6.sem_letni_2012-2013\SAB\lab\TeamCity\TDD.Blog-master\TDD.DbTestHelpers\Helpers\FileHelper.cs:wiersz 69
 --- End of inner exception stack trace ---
    w TDD.DbTestHelpers.Helpers.FileHelper.GetFixutresFromYaml(Type fixtureType, String yamlFolderName, IEnumerable`1 yamlFullFilesNames) w E:\Studia\_Asystentura\6.sem_letni_2012-2013\SAB\lab\TeamCity\TDD.Blog-master\TDD.DbTestHelpers\Helpers\FileHelper.cs:wiersz 73
   w TDD.DbTestHelpers.Helpers.FileHelper.FillFixturesFileFiles(Type fixtureType, DbContext context, String yamlFolderName, IEnumerable`1 yamlFullFilesNames) w E:\Studia\_Asystentura\6.sem_letni_2012-2013\SAB\lab\TeamCity\TDD.Blog-master\TDD.DbTestHelpers\Helpers\FileHelper.cs:wiersz 42
   w TDD.DbTestHelpers.Helpers.FileHelper.FillFixturesFileFiles[TFixtureType](DbContext context, String yamlFolderName, IEnumerable`1 yamlFilesNames) w E:\Studia\_Asystentura\6.sem_letni_2012-2013\SAB\lab\TeamCity\TDD.Blog-master\TDD.DbTestHelpers\Helpers\FileHelper.cs:wiersz 37
   w TDD.DbTestHelpers.Yaml.YamlDbFixture`2.FillFixtures() w E:\Studia\_Asystentura\6.sem_letni_2012-2013\SAB\lab\TeamCity\TDD.Blog-master\TDD.DbTestHelpers\Yaml\YamlDbFixture.cs:wiersz 38
   w TDD.DbTestHelpers.Core.DbBaseTest`1.ApplyFixtures() w E:\Studia\_Asystentura\6.sem_letni_2012-2013\SAB\lab\TeamCity\TDD.Blog-master\TDD.DbTestHelpers\Core\DbBaseTest.cs:wiersz 45
   w TDD.DbTestHelpers.Core.DbBaseTest`1.BaseSetUp() w E:\Studia\_Asystentura\6.sem_letni_2012-2013\SAB\lab\TeamCity\TDD.Blog-master\TDD.DbTestHelpers\Core\DbBaseTest.cs:wiersz 23
</StackTrace>
        </ErrorInfo>
      </Output>
    </UnitTestResult>
  </Results>
</TestRun>